EESchema Schematic File Version 4
EELAYER 30 0
EELAYER END
$Descr A3 16535 11693
encoding utf-8
Sheet 3 5
Title ""
Date ""
Rev ""
Comp ""
Comment1 ""
Comment2 ""
Comment3 ""
Comment4 ""
$EndDescr
Text Label 7700 2800 0    50   ~ 0
IO15
$Comp
L iccfpga-devboard-rescue:MPCIE-Socket-mpcie U1
U 1 1 5D97BF59
P 7000 3550
F 0 "U1" H 7000 5000 60  0000 C CNN
F 1 "Socket" H 7000 4900 60  0000 C CNN
F 2 "mpcie:mpcie-socket" H 7000 4881 60  0001 C CNN
F 3 "" H 7100 2550 60  0000 C CNN
F 4 "D" H 7000 3550 50  0001 C CNN "Distributor"
F 5 "A123340CT-ND" H 7000 3550 50  0001 C CNN "OrderNr"
F 6 "1775838-2" H 7000 3550 50  0001 C CNN "Manufacturer"
	1    7000 3550
	1    0    0    -1  
$EndComp
$Comp
L power:GND #PWR0101
U 1 1 5D97BF5F
P 6300 2800
F 0 "#PWR0101" H 6300 2550 50  0001 C CNN
F 1 "GND" V 6305 2672 50  0000 R CNN
F 2 "" H 6300 2800 50  0001 C CNN
F 3 "" H 6300 2800 50  0001 C CNN
	1    6300 2800
	0    1    1    0   
$EndComp
$Comp
L power:GND #PWR0102
U 1 1 5D97BF65
P 6300 3100
F 0 "#PWR0102" H 6300 2850 50  0001 C CNN
F 1 "GND" V 6305 2972 50  0000 R CNN
F 2 "" H 6300 3100 50  0001 C CNN
F 3 "" H 6300 3100 50  0001 C CNN
	1    6300 3100
	0    1    1    0   
$EndComp
$Comp
L power:GND #PWR0103
U 1 1 5D97BF6B
P 6300 3200
F 0 "#PWR0103" H 6300 2950 50  0001 C CNN
F 1 "GND" V 6305 3072 50  0000 R CNN
F 2 "" H 6300 3200 50  0001 C CNN
F 3 "" H 6300 3200 50  0001 C CNN
	1    6300 3200
	0    1    1    0   
$EndComp
$Comp
L power:GND #PWR0104
U 1 1 5D97BF71
P 6300 3500
F 0 "#PWR0104" H 6300 3250 50  0001 C CNN
F 1 "GND" V 6305 3372 50  0000 R CNN
F 2 "" H 6300 3500 50  0001 C CNN
F 3 "" H 6300 3500 50  0001 C CNN
	1    6300 3500
	0    1    1    0   
$EndComp
$Comp
L power:GND #PWR0105
U 1 1 5D97BF77
P 6300 4300
F 0 "#PWR0105" H 6300 4050 50  0001 C CNN
F 1 "GND" V 6305 4172 50  0000 R CNN
F 2 "" H 6300 4300 50  0001 C CNN
F 3 "" H 6300 4300 50  0001 C CNN
	1    6300 4300
	0    1    1    0   
$EndComp
$Comp
L power:GND #PWR0106
U 1 1 5D97BF7D
P 6300 4600
F 0 "#PWR0106" H 6300 4350 50  0001 C CNN
F 1 "GND" V 6305 4472 50  0000 R CNN
F 2 "" H 6300 4600 50  0001 C CNN
F 3 "" H 6300 4600 50  0001 C CNN
	1    6300 4600
	0    1    1    0   
$EndComp
$Comp
L power:GND #PWR0107
U 1 1 5D97BF83
P 7700 4900
F 0 "#PWR0107" H 7700 4650 50  0001 C CNN
F 1 "GND" V 7705 4772 50  0000 R CNN
F 2 "" H 7700 4900 50  0001 C CNN
F 3 "" H 7700 4900 50  0001 C CNN
	1    7700 4900
	0    -1   -1   0   
$EndComp
$Comp
L power:GND #PWR0108
U 1 1 5D97BF89
P 7700 4100
F 0 "#PWR0108" H 7700 3850 50  0001 C CNN
F 1 "GND" V 7705 3972 50  0000 R CNN
F 2 "" H 7700 4100 50  0001 C CNN
F 3 "" H 7700 4100 50  0001 C CNN
	1    7700 4100
	0    -1   -1   0   
$EndComp
$Comp
L power:GND #PWR0109
U 1 1 5D97BF8F
P 7700 3700
F 0 "#PWR0109" H 7700 3450 50  0001 C CNN
F 1 "GND" V 7705 3572 50  0000 R CNN
F 2 "" H 7700 3700 50  0001 C CNN
F 3 "" H 7700 3700 50  0001 C CNN
	1    7700 3700
	0    -1   -1   0   
$EndComp
$Comp
L power:GND #PWR0110
U 1 1 5D97BF95
P 7700 3000
F 0 "#PWR0110" H 7700 2750 50  0001 C CNN
F 1 "GND" V 7705 2872 50  0000 R CNN
F 2 "" H 7700 3000 50  0001 C CNN
F 3 "" H 7700 3000 50  0001 C CNN
	1    7700 3000
	0    -1   -1   0   
$EndComp
$Comp
L power:GND #PWR0111
U 1 1 5D97BF9B
P 7700 3300
F 0 "#PWR0111" H 7700 3050 50  0001 C CNN
F 1 "GND" V 7705 3172 50  0000 R CNN
F 2 "" H 7700 3300 50  0001 C CNN
F 3 "" H 7700 3300 50  0001 C CNN
	1    7700 3300
	0    -1   -1   0   
$EndComp
$Comp
L power:GND #PWR0112
U 1 1 5D97BFA1
P 7700 2500
F 0 "#PWR0112" H 7700 2250 50  0001 C CNN
F 1 "GND" V 7705 2372 50  0000 R CNN
F 2 "" H 7700 2500 50  0001 C CNN
F 3 "" H 7700 2500 50  0001 C CNN
	1    7700 2500
	0    -1   -1   0   
$EndComp
$Comp
L power:+3V3 #PWR0113
U 1 1 5D97BFA7
P 7700 2400
F 0 "#PWR0113" H 7700 2250 50  0001 C CNN
F 1 "+3V3" V 7715 2528 50  0000 L CNN
F 2 "" H 7700 2400 50  0001 C CNN
F 3 "" H 7700 2400 50  0001 C CNN
	1    7700 2400
	0    1    1    0   
$EndComp
$Comp
L power:+3V3 #PWR0114
U 1 1 5D97BFAD
P 7700 3800
F 0 "#PWR0114" H 7700 3650 50  0001 C CNN
F 1 "+3V3" V 7715 3928 50  0000 L CNN
F 2 "" H 7700 3800 50  0001 C CNN
F 3 "" H 7700 3800 50  0001 C CNN
	1    7700 3800
	0    1    1    0   
$EndComp
$Comp
L power:+3V3 #PWR0115
U 1 1 5D97BFB3
P 7700 5000
F 0 "#PWR0115" H 7700 4850 50  0001 C CNN
F 1 "+3V3" V 7715 5128 50  0000 L CNN
F 2 "" H 7700 5000 50  0001 C CNN
F 3 "" H 7700 5000 50  0001 C CNN
	1    7700 5000
	0    1    1    0   
$EndComp
$Comp
L power:+3V3 #PWR0116
U 1 1 5D97BFB9
P 6300 2900
F 0 "#PWR0116" H 6300 2750 50  0001 C CNN
F 1 "+3V3" V 6315 3028 50  0000 L CNN
F 2 "" H 6300 2900 50  0001 C CNN
F 3 "" H 6300 2900 50  0001 C CNN
	1    6300 2900
	0    -1   -1   0   
$EndComp
$Comp
L power:+3V3 #PWR0117
U 1 1 5D97BFBF
P 6300 3000
F 0 "#PWR0117" H 6300 2850 50  0001 C CNN
F 1 "+3V3" V 6315 3128 50  0000 L CNN
F 2 "" H 6300 3000 50  0001 C CNN
F 3 "" H 6300 3000 50  0001 C CNN
	1    6300 3000
	0    -1   -1   0   
$EndComp
Wire Wire Line
	7700 4700 8100 4700
Wire Wire Line
	7700 4600 8100 4600
Wire Wire Line
	7700 4500 8100 4500
Wire Wire Line
	7700 4400 8100 4400
Wire Wire Line
	7700 4300 8100 4300
Text Label 7700 4700 0    50   ~ 0
IO0_MOSI0
Text Label 7700 4600 0    50   ~ 0
IO1_MISO
Text Label 7700 4500 0    50   ~ 0
IO2_SCK0
Text Label 7700 4400 0    50   ~ 0
IO3_SS0
Wire Wire Line
	7700 4000 8050 4000
Text Label 7700 3900 0    50   ~ 0
FPGA_TMS
Wire Wire Line
	7700 3900 8050 3900
Text Label 7700 4000 0    50   ~ 0
FPGA_TCK
Wire Wire Line
	7700 3600 8050 3600
Wire Wire Line
	7700 3500 8050 3500
Wire Wire Line
	7700 3400 8050 3400
Wire Wire Line
	7700 3200 8050 3200
Wire Wire Line
	7700 3100 8050 3100
Text Label 7700 3400 0    50   ~ 0
IO12
Wire Wire Line
	7700 2900 8050 2900
Wire Wire Line
	7700 2800 8050 2800
Wire Wire Line
	7700 2700 8050 2700
Text Label 7700 4300 0    50   ~ 0
IO4_SS1
Text Label 6300 3400 2    50   ~ 0
IO11
Text Label 7700 3600 0    50   ~ 0
IO9
Text Label 7700 3500 0    50   ~ 0
IO10
Text Label 6300 3300 2    50   ~ 0
IO13
Text Label 7700 3200 0    50   ~ 0
IO14
Text Label 7700 3100 0    50   ~ 0
IO5_SCL0
Text Label 7700 2900 0    50   ~ 0
IO6_SDA0
Text Label 7700 2700 0    50   ~ 0
IO17
Text Label 6300 2700 2    50   ~ 0
IO16
Text Label 6300 2600 2    50   ~ 0
IO18
$Comp
L power:GND #PWR0118
U 1 1 5D97BFE6
P 6300 3600
F 0 "#PWR0118" H 6300 3350 50  0001 C CNN
F 1 "GND" V 6305 3472 50  0000 R CNN
F 2 "" H 6300 3600 50  0001 C CNN
F 3 "" H 6300 3600 50  0001 C CNN
	1    6300 3600
	0    1    1    0   
$EndComp
Text Label 6300 3700 2    50   ~ 0
FPGA_TDI
Text Label 6300 3800 2    50   ~ 0
FPGA_TDO
Text Label 6300 4000 2    50   ~ 0
IO8_TXD
$Comp
L power:GND #PWR0119
U 1 1 5D97BFEF
P 6300 3900
F 0 "#PWR0119" H 6300 3650 50  0001 C CNN
F 1 "GND" V 6305 3772 50  0000 R CNN
F 2 "" H 6300 3900 50  0001 C CNN
F 3 "" H 6300 3900 50  0001 C CNN
	1    6300 3900
	0    1    1    0   
$EndComp
Text Label 6300 4100 2    50   ~ 0
IO7_RXD
Text Label 6300 4400 2    50   ~ 0
RV_TMS
Text Label 6300 4500 2    50   ~ 0
RV_RESET
Text Label 6300 4800 2    50   ~ 0
RV_TDI
Text Label 6300 4900 2    50   ~ 0
RV_TDO
Text Label 6300 5000 2    50   ~ 0
RV_TCK
Wire Wire Line
	6300 4800 5900 4800
Wire Wire Line
	6300 5000 5900 5000
Wire Wire Line
	6300 4900 5900 4900
Wire Wire Line
	6300 4500 5900 4500
Wire Wire Line
	6300 4400 5900 4400
Wire Wire Line
	6300 3700 5900 3700
Wire Wire Line
	6300 3800 5900 3800
Wire Wire Line
	6300 2700 5950 2700
Wire Wire Line
	6300 2600 5950 2600
Wire Wire Line
	6300 2500 5950 2500
Text Label 6300 2500 2    50   ~ 0
FPGA_CLK_HOLD
Wire Wire Line
	9950 2800 9900 2800
Wire Wire Line
	9950 2600 9900 2600
Wire Wire Line
	9950 2500 9900 2500
$Comp
L Connector_Generic:Conn_02x07_Odd_Even J2
U 1 1 5DB9BCF6
P 10050 6950
F 0 "J2" H 10100 7467 50  0000 C CNN
F 1 "JTAG FPGA" H 10100 7376 50  0000 C CNN
F 2 "myfootprints:PinHeader_2x07_P2.00mm_Vertical_IDC" H 10050 6950 50  0001 C CNN
F 3 "~" H 10050 6950 50  0001 C CNN
F 4 "D" H 1050 900 50  0001 C CNN "Distributor"
F 5 "SBH21-NBPN-D07-ST-BK" H 1050 900 50  0001 C CNN "Manufacturer"
F 6 "S9019-ND" H 1050 900 50  0001 C CNN "OrderNr"
	1    10050 6950
	1    0    0    -1  
$EndComp
$Comp
L power:GND #PWR0120
U 1 1 5DB9BCFC
P 9750 7350
F 0 "#PWR0120" H 9750 7100 50  0001 C CNN
F 1 "GND" H 9755 7177 50  0000 C CNN
F 2 "" H 9750 7350 50  0001 C CNN
F 3 "" H 9750 7350 50  0001 C CNN
	1    9750 7350
	1    0    0    -1  
$EndComp
Wire Wire Line
	9750 7350 9750 7250
Wire Wire Line
	9750 6650 9850 6650
Wire Wire Line
	9850 6750 9750 6750
Connection ~ 9750 6750
Wire Wire Line
	9750 6750 9750 6650
Wire Wire Line
	9850 6850 9750 6850
Connection ~ 9750 6850
Wire Wire Line
	9750 6850 9750 6750
Wire Wire Line
	9850 6950 9750 6950
Connection ~ 9750 6950
Wire Wire Line
	9750 6950 9750 6850
Wire Wire Line
	9850 7050 9750 7050
Connection ~ 9750 7050
Wire Wire Line
	9750 7050 9750 6950
Wire Wire Line
	9850 7150 9750 7150
Connection ~ 9750 7150
Wire Wire Line
	9750 7150 9750 7050
Wire Wire Line
	9850 7250 9750 7250
Connection ~ 9750 7250
Wire Wire Line
	9750 7250 9750 7150
Wire Wire Line
	10350 6750 10600 6750
Wire Wire Line
	10350 6850 10600 6850
Wire Wire Line
	10350 6950 10600 6950
Wire Wire Line
	10350 7050 10600 7050
Wire Wire Line
	10350 6650 10600 6650
$Comp
L power:+3V3 #PWR0121
U 1 1 5DB9BD1F
P 10600 6650
F 0 "#PWR0121" H 10600 6500 50  0001 C CNN
F 1 "+3V3" H 10615 6823 50  0000 C CNN
F 2 "" H 10600 6650 50  0001 C CNN
F 3 "" H 10600 6650 50  0001 C CNN
	1    10600 6650
	1    0    0    -1  
$EndComp
Text Notes 8250 4700 0    60   ~ 0
L1
Text Notes 8250 4600 0    60   ~ 0
L2
Text Notes 8250 4500 0    60   ~ 0
P2
Text Notes 8250 4400 0    60   ~ 0
M4
Text Notes 8100 2800 0    60   ~ 0
P13
Text Notes 8100 2700 0    60   ~ 0
N14
Text Notes 5900 2700 2    60   ~ 0
M13
Text Notes 5900 2600 2    60   ~ 0
M14
Text Notes 5850 4000 2    60   ~ 0
P4
Text Notes 5850 4100 2    60   ~ 0
N4
Text Notes 8250 4300 0    60   ~ 0
P3
Text Notes 5850 4400 2    60   ~ 0
M2
Text Notes 5650 2500 2    60   ~ 0
L12
Text Notes 5900 3300 2    60   ~ 0
N11
Text Notes 5900 3400 2    60   ~ 0
M10
Text Notes 5850 4500 2    60   ~ 0
M1
Text Notes 5850 4800 2    60   ~ 0
J2
Text Notes 5850 4900 2    60   ~ 0
J1
Text Notes 5850 5000 2    60   ~ 0
H2
Text Notes 8100 3600 0    60   ~ 0
P10
Text Notes 8100 3500 0    60   ~ 0
N10
Text Notes 8100 3400 0    60   ~ 0
P11
Text Notes 8100 3200 0    60   ~ 0
M11
Text Notes 8100 3100 0    60   ~ 0
P12
Text Notes 8100 2900 0    60   ~ 0
M12
$Comp
L Connector_Generic:Conn_02x05_Odd_Even J6
U 1 1 5DBC0DA6
P 13150 6950
F 0 "J6" H 13200 7367 50  0000 C CNN
F 1 "JTAG RISC-V" H 13200 7276 50  0000 C CNN
F 2 "Connector_IDC:IDC-Header_2x05_P2.54mm_Vertical" H 13150 6950 50  0001 C CNN
F 3 "~" H 13150 6950 50  0001 C CNN
F 4 "302-S101" H 1050 900 50  0001 C CNN "Manufacturer"
F 5 "ED1543-ND" H 1050 900 50  0001 C CNN "OrderNr"
F 6 "D" H 1050 900 50  0001 C CNN "Distributor"
	1    13150 6950
	1    0    0    -1  
$EndComp
$Comp
L iccfpga-dev-rescue:GND #PWR0122
U 1 1 5DBC2A16
P 13450 6750
F 0 "#PWR0122" H 13450 6500 50  0001 C CNN
F 1 "GND" V 13455 6622 50  0000 R CNN
F 2 "" H 13450 6750 50  0001 C CNN
F 3 "" H 13450 6750 50  0001 C CNN
	1    13450 6750
	0    -1   -1   0   
$EndComp
$Comp
L iccfpga-dev-rescue:GND #PWR0123
U 1 1 5DBC8087
P 13450 7150
F 0 "#PWR0123" H 13450 6900 50  0001 C CNN
F 1 "GND" V 13455 7022 50  0000 R CNN
F 2 "" H 13450 7150 50  0001 C CNN
F 3 "" H 13450 7150 50  0001 C CNN
	1    13450 7150
	0    -1   -1   0   
$EndComp
Wire Wire Line
	6300 3400 5900 3400
Wire Wire Line
	5900 3300 6300 3300
Wire Wire Line
	6300 2400 5950 2400
Text Label 6300 2400 2    60   ~ 0
INIT
Text Label 9600 2500 2    50   ~ 0
IO3_SS0
Text Label 9600 2700 2    50   ~ 0
IO1_MISO
Text Label 9600 2600 2    50   ~ 0
IO0_MOSI0
Text Label 9600 2800 2    50   ~ 0
IO2_SCK0
Text Label 9600 3300 2    50   ~ 0
IO4_SS1
Wire Wire Line
	9950 2700 9900 2700
Text Label 10800 3300 0    50   ~ 0
IO13
Text Label 10800 3400 0    50   ~ 0
IO14
Text Label 9600 3400 2    50   ~ 0
IO0_MOSI0
Text Label 9600 3500 2    50   ~ 0
IO1_MISO
Text Label 9600 3600 2    50   ~ 0
IO2_SCK0
Text Label 10800 3500 0    50   ~ 0
IO5_SCL0
Text Label 10800 3600 0    50   ~ 0
IO6_SDA0
$Comp
L Connector_Generic:Conn_02x06_Top_Bottom J5
U 1 1 5DBF50E7
P 10150 4400
F 0 "J5" H 10200 4725 50  0000 C CNN
F 1 "PMOD 3" H 10200 4726 50  0001 C CNN
F 2 "myfootprints:PinSocket_2X06_P2.54mm_Horizontal_SMD_PMOD" H 10150 4400 50  0001 C CNN
F 3 "~" H 10150 4400 50  0001 C CNN
F 4 "D" H 1050 900 50  0001 C CNN "Distributor"
F 5 "M20-7920642R" H 1050 900 50  0001 C CNN "Manufacturer"
F 6 "952-3206-1-ND" H 1050 900 50  0001 C CNN "OrderNr"
	1    10150 4400
	1    0    0    -1  
$EndComp
Wire Wire Line
	9600 2500 9500 2500
Wire Wire Line
	9600 2600 9500 2600
Wire Wire Line
	9600 2700 9500 2700
Wire Wire Line
	9600 2800 9500 2800
Wire Wire Line
	10450 2800 10500 2800
Wire Wire Line
	10450 2700 10500 2700
Wire Wire Line
	10450 2600 10500 2600
Wire Wire Line
	10450 2500 10500 2500
Wire Wire Line
	10800 2800 10900 2800
Wire Wire Line
	10800 2700 10900 2700
Wire Wire Line
	10800 2600 10900 2600
Wire Wire Line
	10800 2500 10900 2500
Text Label 10800 2800 0    50   ~ 0
IO12
Text Label 10800 2700 0    50   ~ 0
IO11
Text Label 10800 2600 0    50   ~ 0
IO10
Text Label 10800 2500 0    50   ~ 0
IO9
Wire Wire Line
	9600 3300 9500 3300
Wire Wire Line
	9600 3400 9500 3400
Wire Wire Line
	9600 3500 9500 3500
Wire Wire Line
	9600 3600 9500 3600
Wire Wire Line
	9900 3300 9950 3300
Wire Wire Line
	9950 3400 9900 3400
Wire Wire Line
	9900 3500 9950 3500
Wire Wire Line
	9950 3600 9900 3600
Wire Wire Line
	10450 3300 10500 3300
Wire Wire Line
	10500 3400 10450 3400
Wire Wire Line
	10450 3500 10500 3500
Wire Wire Line
	10500 3600 10450 3600
Wire Wire Line
	10800 3300 10900 3300
Wire Wire Line
	10800 3400 10900 3400
Wire Wire Line
	10450 4200 10500 4200
Wire Wire Line
	10500 4300 10450 4300
Wire Wire Line
	10450 4400 10500 4400
Wire Wire Line
	10500 4500 10450 4500
Wire Wire Line
	10800 4200 10900 4200
Wire Wire Line
	10800 4300 10900 4300
Wire Wire Line
	10800 4400 10900 4400
Wire Wire Line
	10800 4500 10900 4500
Wire Wire Line
	9600 4300 9500 4300
Wire Wire Line
	9600 4400 9500 4400
Wire Wire Line
	9900 4200 9950 4200
Wire Wire Line
	9950 4300 9900 4300
Wire Wire Line
	9900 4400 9950 4400
Wire Wire Line
	9950 4500 9900 4500
Text Label 10900 4200 0    50   ~ 0
IO15
Text Label 10900 4300 0    50   ~ 0
IO16
Text Label 10900 4400 0    50   ~ 0
IO17
Text Label 10900 4500 0    50   ~ 0
IO18
NoConn ~ 9600 4200
NoConn ~ 9600 4500
$Comp
L iccfpga-dev-rescue:GND #PWR0124
U 1 1 5DC84721
P 9950 2900
F 0 "#PWR0124" H 9950 2650 50  0001 C CNN
F 1 "GND" V 9955 2772 50  0000 R CNN
F 2 "" H 9950 2900 50  0001 C CNN
F 3 "" H 9950 2900 50  0001 C CNN
	1    9950 2900
	0    1    1    0   
$EndComp
$Comp
L iccfpga-dev-rescue:GND #PWR0125
U 1 1 5DC84D71
P 10450 2900
F 0 "#PWR0125" H 10450 2650 50  0001 C CNN
F 1 "GND" V 10455 2772 50  0000 R CNN
F 2 "" H 10450 2900 50  0001 C CNN
F 3 "" H 10450 2900 50  0001 C CNN
	1    10450 2900
	0    -1   -1   0   
$EndComp
$Comp
L iccfpga-dev-rescue:GND #PWR0126
U 1 1 5DC85DCA
P 10450 3700
F 0 "#PWR0126" H 10450 3450 50  0001 C CNN
F 1 "GND" V 10455 3572 50  0000 R CNN
F 2 "" H 10450 3700 50  0001 C CNN
F 3 "" H 10450 3700 50  0001 C CNN
	1    10450 3700
	0    -1   -1   0   
$EndComp
$Comp
L iccfpga-dev-rescue:GND #PWR0127
U 1 1 5DC861E2
P 10450 4600
F 0 "#PWR0127" H 10450 4350 50  0001 C CNN
F 1 "GND" V 10455 4472 50  0000 R CNN
F 2 "" H 10450 4600 50  0001 C CNN
F 3 "" H 10450 4600 50  0001 C CNN
	1    10450 4600
	0    -1   -1   0   
$EndComp
$Comp
L iccfpga-dev-rescue:GND #PWR0128
U 1 1 5DC866CE
P 9950 4600
F 0 "#PWR0128" H 9950 4350 50  0001 C CNN
F 1 "GND" V 9955 4472 50  0000 R CNN
F 2 "" H 9950 4600 50  0001 C CNN
F 3 "" H 9950 4600 50  0001 C CNN
	1    9950 4600
	0    1    1    0   
$EndComp
$Comp
L iccfpga-dev-rescue:GND #PWR0129
U 1 1 5DC86DF1
P 9950 3700
F 0 "#PWR0129" H 9950 3450 50  0001 C CNN
F 1 "GND" V 9955 3572 50  0000 R CNN
F 2 "" H 9950 3700 50  0001 C CNN
F 3 "" H 9950 3700 50  0001 C CNN
	1    9950 3700
	0    1    1    0   
$EndComp
$Comp
L iccfpga-dev-rescue:+3V3 #PWR0130
U 1 1 5DC87844
P 9950 3800
F 0 "#PWR0130" H 9950 3650 50  0001 C CNN
F 1 "+3V3" V 9965 3928 50  0000 L CNN
F 2 "" H 9950 3800 50  0001 C CNN
F 3 "" H 9950 3800 50  0001 C CNN
	1    9950 3800
	0    -1   -1   0   
$EndComp
$Comp
L iccfpga-dev-rescue:+3V3 #PWR0131
U 1 1 5DC87EF0
P 10450 3800
F 0 "#PWR0131" H 10450 3650 50  0001 C CNN
F 1 "+3V3" V 10465 3928 50  0000 L CNN
F 2 "" H 10450 3800 50  0001 C CNN
F 3 "" H 10450 3800 50  0001 C CNN
	1    10450 3800
	0    1    1    0   
$EndComp
$Comp
L iccfpga-dev-rescue:+3V3 #PWR0132
U 1 1 5DC88798
P 10450 4700
F 0 "#PWR0132" H 10450 4550 50  0001 C CNN
F 1 "+3V3" V 10465 4828 50  0000 L CNN
F 2 "" H 10450 4700 50  0001 C CNN
F 3 "" H 10450 4700 50  0001 C CNN
	1    10450 4700
	0    1    1    0   
$EndComp
$Comp
L iccfpga-dev-rescue:+3V3 #PWR0133
U 1 1 5DC88CFB
P 10450 3000
F 0 "#PWR0133" H 10450 2850 50  0001 C CNN
F 1 "+3V3" V 10465 3128 50  0000 L CNN
F 2 "" H 10450 3000 50  0001 C CNN
F 3 "" H 10450 3000 50  0001 C CNN
	1    10450 3000
	0    1    1    0   
$EndComp
$Comp
L iccfpga-dev-rescue:+3V3 #PWR0134
U 1 1 5DC89389
P 9950 3000
F 0 "#PWR0134" H 9950 2850 50  0001 C CNN
F 1 "+3V3" V 9965 3128 50  0000 L CNN
F 2 "" H 9950 3000 50  0001 C CNN
F 3 "" H 9950 3000 50  0001 C CNN
	1    9950 3000
	0    -1   -1   0   
$EndComp
$Comp
L iccfpga-dev-rescue:+3V3 #PWR0135
U 1 1 5DC899AC
P 9950 4700
F 0 "#PWR0135" H 9950 4550 50  0001 C CNN
F 1 "+3V3" V 9965 4828 50  0000 L CNN
F 2 "" H 9950 4700 50  0001 C CNN
F 3 "" H 9950 4700 50  0001 C CNN
	1    9950 4700
	0    -1   -1   0   
$EndComp
$Comp
L Connector_Generic:Conn_02x06_Top_Bottom J4
U 1 1 5DBF3194
P 10150 3500
F 0 "J4" H 10200 3825 50  0000 C CNN
F 1 "PMOD 2" H 10200 3826 50  0001 C CNN
F 2 "myfootprints:PinSocket_2X06_P2.54mm_Horizontal_SMD_PMOD" H 10150 3500 50  0001 C CNN
F 3 "~" H 10150 3500 50  0001 C CNN
F 4 "D" H 1050 900 50  0001 C CNN "Distributor"
F 5 "M20-7920642R" H 1050 900 50  0001 C CNN "Manufacturer"
F 6 "952-3206-1-ND" H 1050 900 50  0001 C CNN "OrderNr"
	1    10150 3500
	1    0    0    -1  
$EndComp
$Comp
L mylib:r_network_4 U2
U 1 1 5DCBF353
P 9750 3300
F 0 "U2" V 9609 3300 60  0001 C CNN
F 1 "200" V 9609 3300 60  0001 C CNN
F 2 "Resistor_SMD:R_Array_Convex_4x0603" H 9750 3300 60  0001 C CNN
F 3 "" H 9750 3300 60  0001 C CNN
F 4 "D" H 1050 900 50  0001 C CNN "Distributor"
F 5 "CAY16-201J4LF" H 1050 900 50  0001 C CNN "Manufacturer"
F 6 "CAY16-201J4LFCT-ND" H 1050 900 50  0001 C CNN "OrderNr"
	1    9750 3300
	0    1    1    0   
$EndComp
$Comp
L mylib:r_network_4 U2
U 2 1 5DCDD2F6
P 10650 3300
F 0 "U2" V 10509 3300 60  0001 C CNN
F 1 "200" V 10509 3300 60  0001 C CNN
F 2 "Resistor_SMD:R_Array_Convex_4x0603" H 10650 3300 60  0001 C CNN
F 3 "" H 10650 3300 60  0001 C CNN
F 4 "D" H 1050 900 50  0001 C CNN "Distributor"
F 5 "CAY16-201J4LF" H 1050 900 50  0001 C CNN "Manufacturer"
F 6 "CAY16-201J4LFCT-ND" H 1050 900 50  0001 C CNN "OrderNr"
	2    10650 3300
	0    -1   -1   0   
$EndComp
$Comp
L mylib:r_network_4 U2
U 3 1 5DCDDE87
P 9750 3400
F 0 "U2" V 9609 3400 60  0001 C CNN
F 1 "200" V 9609 3400 60  0001 C CNN
F 2 "Resistor_SMD:R_Array_Convex_4x0603" H 9750 3400 60  0001 C CNN
F 3 "" H 9750 3400 60  0001 C CNN
F 4 "D" H 1050 900 50  0001 C CNN "Distributor"
F 5 "CAY16-201J4LF" H 1050 900 50  0001 C CNN "Manufacturer"
F 6 "CAY16-201J4LFCT-ND" H 1050 900 50  0001 C CNN "OrderNr"
	3    9750 3400
	0    1    1    0   
$EndComp
$Comp
L mylib:r_network_4 U2
U 4 1 5DCDE7C3
P 10650 3400
F 0 "U2" V 10509 3400 60  0001 C CNN
F 1 "200" V 10509 3400 60  0001 C CNN
F 2 "Resistor_SMD:R_Array_Convex_4x0603" H 10650 3400 60  0001 C CNN
F 3 "" H 10650 3400 60  0001 C CNN
F 4 "D" H 1050 900 50  0001 C CNN "Distributor"
F 5 "CAY16-201J4LF" H 1050 900 50  0001 C CNN "Manufacturer"
F 6 "CAY16-201J4LFCT-ND" H 1050 900 50  0001 C CNN "OrderNr"
	4    10650 3400
	0    -1   -1   0   
$EndComp
$Comp
L mylib:r_network_4 U5
U 1 1 5DCDEFB1
P 9750 3500
F 0 "U5" V 9609 3500 60  0001 C CNN
F 1 "200" V 9609 3500 60  0001 C CNN
F 2 "Resistor_SMD:R_Array_Convex_4x0603" H 9750 3500 60  0001 C CNN
F 3 "" H 9750 3500 60  0001 C CNN
F 4 "D" H 1050 900 50  0001 C CNN "Distributor"
F 5 "CAY16-201J4LF" H 1050 900 50  0001 C CNN "Manufacturer"
F 6 "CAY16-201J4LFCT-ND" H 1050 900 50  0001 C CNN "OrderNr"
	1    9750 3500
	0    1    1    0   
$EndComp
$Comp
L mylib:r_network_4 U5
U 2 1 5DCDF896
P 10650 3500
F 0 "U5" V 10509 3500 60  0001 C CNN
F 1 "200" V 10509 3500 60  0001 C CNN
F 2 "Resistor_SMD:R_Array_Convex_4x0603" H 10650 3500 60  0001 C CNN
F 3 "" H 10650 3500 60  0001 C CNN
F 4 "D" H 1050 900 50  0001 C CNN "Distributor"
F 5 "CAY16-201J4LF" H 1050 900 50  0001 C CNN "Manufacturer"
F 6 "CAY16-201J4LFCT-ND" H 1050 900 50  0001 C CNN "OrderNr"
	2    10650 3500
	0    -1   -1   0   
$EndComp
$Comp
L mylib:r_network_4 U5
U 3 1 5DCE01EF
P 9750 3600
F 0 "U5" V 9609 3600 60  0001 C CNN
F 1 "200" V 9609 3600 60  0001 C CNN
F 2 "Resistor_SMD:R_Array_Convex_4x0603" H 9750 3600 60  0001 C CNN
F 3 "" H 9750 3600 60  0001 C CNN
F 4 "D" H 1050 900 50  0001 C CNN "Distributor"
F 5 "CAY16-201J4LF" H 1050 900 50  0001 C CNN "Manufacturer"
F 6 "CAY16-201J4LFCT-ND" H 1050 900 50  0001 C CNN "OrderNr"
	3    9750 3600
	0    1    1    0   
$EndComp
$Comp
L mylib:r_network_4 U5
U 4 1 5DCE0A07
P 10650 3600
F 0 "U5" V 10509 3600 60  0001 C CNN
F 1 "200" V 10509 3600 60  0001 C CNN
F 2 "Resistor_SMD:R_Array_Convex_4x0603" H 10650 3600 60  0001 C CNN
F 3 "" H 10650 3600 60  0001 C CNN
F 4 "D" H 1050 900 50  0001 C CNN "Distributor"
F 5 "CAY16-201J4LF" H 1050 900 50  0001 C CNN "Manufacturer"
F 6 "CAY16-201J4LFCT-ND" H 1050 900 50  0001 C CNN "OrderNr"
	4    10650 3600
	0    -1   -1   0   
$EndComp
$Comp
L mylib:r_network_4 U4
U 1 1 5DCE99A6
P 9750 2500
F 0 "U4" V 9609 2500 60  0001 C CNN
F 1 "200" V 9609 2500 60  0001 C CNN
F 2 "Resistor_SMD:R_Array_Convex_4x0603" H 9750 2500 60  0001 C CNN
F 3 "" H 9750 2500 60  0001 C CNN
F 4 "D" H 1050 900 50  0001 C CNN "Distributor"
F 5 "CAY16-201J4LF" H 1050 900 50  0001 C CNN "Manufacturer"
F 6 "CAY16-201J4LFCT-ND" H 1050 900 50  0001 C CNN "OrderNr"
	1    9750 2500
	0    1    1    0   
$EndComp
$Comp
L mylib:r_network_4 U4
U 2 1 5DCEA19C
P 10650 2500
F 0 "U4" V 10509 2500 60  0001 C CNN
F 1 "200" V 10509 2500 60  0001 C CNN
F 2 "Resistor_SMD:R_Array_Convex_4x0603" H 10650 2500 60  0001 C CNN
F 3 "" H 10650 2500 60  0001 C CNN
F 4 "D" H 1050 900 50  0001 C CNN "Distributor"
F 5 "CAY16-201J4LF" H 1050 900 50  0001 C CNN "Manufacturer"
F 6 "CAY16-201J4LFCT-ND" H 1050 900 50  0001 C CNN "OrderNr"
	2    10650 2500
	0    -1   -1   0   
$EndComp
$Comp
L mylib:r_network_4 U4
U 3 1 5DCEB337
P 9750 2600
F 0 "U4" V 9609 2600 60  0001 C CNN
F 1 "200" V 9609 2600 60  0001 C CNN
F 2 "Resistor_SMD:R_Array_Convex_4x0603" H 9750 2600 60  0001 C CNN
F 3 "" H 9750 2600 60  0001 C CNN
F 4 "D" H 1050 900 50  0001 C CNN "Distributor"
F 5 "CAY16-201J4LF" H 1050 900 50  0001 C CNN "Manufacturer"
F 6 "CAY16-201J4LFCT-ND" H 1050 900 50  0001 C CNN "OrderNr"
	3    9750 2600
	0    1    1    0   
$EndComp
$Comp
L mylib:r_network_4 U4
U 4 1 5DCEBD38
P 10650 2600
F 0 "U4" V 10509 2600 60  0001 C CNN
F 1 "200" V 10509 2600 60  0001 C CNN
F 2 "Resistor_SMD:R_Array_Convex_4x0603" H 10650 2600 60  0001 C CNN
F 3 "" H 10650 2600 60  0001 C CNN
F 4 "D" H 1050 900 50  0001 C CNN "Distributor"
F 5 "CAY16-201J4LF" H 1050 900 50  0001 C CNN "Manufacturer"
F 6 "CAY16-201J4LFCT-ND" H 1050 900 50  0001 C CNN "OrderNr"
	4    10650 2600
	0    -1   -1   0   
$EndComp
$Comp
L mylib:r_network_4 U7
U 2 1 5DCEE0EE
P 10650 2700
F 0 "U7" V 10509 2700 60  0001 C CNN
F 1 "200" V 10509 2700 60  0001 C CNN
F 2 "Resistor_SMD:R_Array_Convex_4x0603" H 10650 2700 60  0001 C CNN
F 3 "" H 10650 2700 60  0001 C CNN
F 4 "D" H 1050 900 50  0001 C CNN "Distributor"
F 5 "CAY16-201J4LF" H 1050 900 50  0001 C CNN "Manufacturer"
F 6 "CAY16-201J4LFCT-ND" H 1050 900 50  0001 C CNN "OrderNr"
	2    10650 2700
	0    -1   -1   0   
$EndComp
$Comp
L mylib:r_network_4 U7
U 3 1 5DCEE9F1
P 9750 2800
F 0 "U7" V 9609 2800 60  0001 C CNN
F 1 "200" V 9609 2800 60  0001 C CNN
F 2 "Resistor_SMD:R_Array_Convex_4x0603" H 9750 2800 60  0001 C CNN
F 3 "" H 9750 2800 60  0001 C CNN
F 4 "D" H 1050 900 50  0001 C CNN "Distributor"
F 5 "CAY16-201J4LF" H 1050 900 50  0001 C CNN "Manufacturer"
F 6 "CAY16-201J4LFCT-ND" H 1050 900 50  0001 C CNN "OrderNr"
	3    9750 2800
	0    1    1    0   
$EndComp
$Comp
L mylib:r_network_4 U7
U 4 1 5DCEF36F
P 10650 2800
F 0 "U7" V 10509 2800 60  0001 C CNN
F 1 "200" V 10509 2800 60  0001 C CNN
F 2 "Resistor_SMD:R_Array_Convex_4x0603" H 10650 2800 60  0001 C CNN
F 3 "" H 10650 2800 60  0001 C CNN
F 4 "D" H 1050 900 50  0001 C CNN "Distributor"
F 5 "CAY16-201J4LF" H 1050 900 50  0001 C CNN "Manufacturer"
F 6 "CAY16-201J4LFCT-ND" H 1050 900 50  0001 C CNN "OrderNr"
	4    10650 2800
	0    -1   -1   0   
$EndComp
$Comp
L mylib:r_network_4 U6
U 1 1 5DCEFDC8
P 9750 4200
F 0 "U6" V 9609 4200 60  0001 C CNN
F 1 "200" V 9609 4200 60  0001 C CNN
F 2 "Resistor_SMD:R_Array_Convex_4x0603" H 9750 4200 60  0001 C CNN
F 3 "" H 9750 4200 60  0001 C CNN
F 4 "D" H 1050 900 50  0001 C CNN "Distributor"
F 5 "CAY16-201J4LF" H 1050 900 50  0001 C CNN "Manufacturer"
F 6 "CAY16-201J4LFCT-ND" H 1050 900 50  0001 C CNN "OrderNr"
	1    9750 4200
	0    1    1    0   
$EndComp
$Comp
L mylib:r_network_4 U6
U 2 1 5DCF0B29
P 10650 4200
F 0 "U6" V 10509 4200 60  0001 C CNN
F 1 "200" V 10509 4200 60  0001 C CNN
F 2 "Resistor_SMD:R_Array_Convex_4x0603" H 10650 4200 60  0001 C CNN
F 3 "" H 10650 4200 60  0001 C CNN
F 4 "D" H 1050 900 50  0001 C CNN "Distributor"
F 5 "CAY16-201J4LF" H 1050 900 50  0001 C CNN "Manufacturer"
F 6 "CAY16-201J4LFCT-ND" H 1050 900 50  0001 C CNN "OrderNr"
	2    10650 4200
	0    -1   -1   0   
$EndComp
$Comp
L mylib:r_network_4 U6
U 3 1 5DCF1580
P 9750 4300
F 0 "U6" V 9609 4300 60  0001 C CNN
F 1 "200" V 9609 4300 60  0001 C CNN
F 2 "Resistor_SMD:R_Array_Convex_4x0603" H 9750 4300 60  0001 C CNN
F 3 "" H 9750 4300 60  0001 C CNN
F 4 "D" H 1050 900 50  0001 C CNN "Distributor"
F 5 "CAY16-201J4LF" H 1050 900 50  0001 C CNN "Manufacturer"
F 6 "CAY16-201J4LFCT-ND" H 1050 900 50  0001 C CNN "OrderNr"
	3    9750 4300
	0    1    1    0   
$EndComp
$Comp
L mylib:r_network_4 U6
U 4 1 5DCF20DE
P 10650 4300
F 0 "U6" V 10509 4300 60  0001 C CNN
F 1 "200" V 10509 4300 60  0001 C CNN
F 2 "Resistor_SMD:R_Array_Convex_4x0603" H 10650 4300 60  0001 C CNN
F 3 "" H 10650 4300 60  0001 C CNN
F 4 "D" H 1050 900 50  0001 C CNN "Distributor"
F 5 "CAY16-201J4LF" H 1050 900 50  0001 C CNN "Manufacturer"
F 6 "CAY16-201J4LFCT-ND" H 1050 900 50  0001 C CNN "OrderNr"
	4    10650 4300
	0    -1   -1   0   
$EndComp
$Comp
L mylib:r_network_4 U9
U 1 1 5DCF28B1
P 9750 4400
F 0 "U9" V 9609 4400 60  0001 C CNN
F 1 "200" V 9609 4400 60  0001 C CNN
F 2 "Resistor_SMD:R_Array_Convex_4x0603" H 9750 4400 60  0001 C CNN
F 3 "" H 9750 4400 60  0001 C CNN
F 4 "D" H 1050 900 50  0001 C CNN "Distributor"
F 5 "CAY16-201J4LF" H 1050 900 50  0001 C CNN "Manufacturer"
F 6 "CAY16-201J4LFCT-ND" H 1050 900 50  0001 C CNN "OrderNr"
	1    9750 4400
	0    1    1    0   
$EndComp
$Comp
L mylib:r_network_4 U9
U 2 1 5DCF303A
P 10650 4400
F 0 "U9" V 10509 4400 60  0001 C CNN
F 1 "200" V 10509 4400 60  0001 C CNN
F 2 "Resistor_SMD:R_Array_Convex_4x0603" H 10650 4400 60  0001 C CNN
F 3 "" H 10650 4400 60  0001 C CNN
F 4 "D" H 1050 900 50  0001 C CNN "Distributor"
F 5 "CAY16-201J4LF" H 1050 900 50  0001 C CNN "Manufacturer"
F 6 "CAY16-201J4LFCT-ND" H 1050 900 50  0001 C CNN "OrderNr"
	2    10650 4400
	0    -1   -1   0   
$EndComp
$Comp
L mylib:r_network_4 U9
U 3 1 5DCF3909
P 9750 4500
F 0 "U9" V 9609 4500 60  0001 C CNN
F 1 "200" V 9609 4500 60  0001 C CNN
F 2 "Resistor_SMD:R_Array_Convex_4x0603" H 9750 4500 60  0001 C CNN
F 3 "" H 9750 4500 60  0001 C CNN
F 4 "D" H 1050 900 50  0001 C CNN "Distributor"
F 5 "CAY16-201J4LF" H 1050 900 50  0001 C CNN "Manufacturer"
F 6 "CAY16-201J4LFCT-ND" H 1050 900 50  0001 C CNN "OrderNr"
	3    9750 4500
	0    1    1    0   
$EndComp
$Comp
L mylib:r_network_4 U9
U 4 1 5DCF4141
P 10650 4500
F 0 "U9" V 10509 4500 60  0001 C CNN
F 1 "200" V 10509 4500 60  0001 C CNN
F 2 "Resistor_SMD:R_Array_Convex_4x0603" H 10650 4500 60  0001 C CNN
F 3 "" H 10650 4500 60  0001 C CNN
F 4 "D" H 1050 900 50  0001 C CNN "Distributor"
F 5 "CAY16-201J4LF" H 1050 900 50  0001 C CNN "Manufacturer"
F 6 "CAY16-201J4LFCT-ND" H 1050 900 50  0001 C CNN "OrderNr"
	4    10650 4500
	0    -1   -1   0   
$EndComp
Wire Wire Line
	12950 6850 12650 6850
Wire Wire Line
	12650 6750 12950 6750
Wire Wire Line
	12950 6950 12650 6950
Wire Wire Line
	12950 7050 12650 7050
Wire Wire Line
	12950 7150 12650 7150
Wire Wire Line
	13450 6950 13800 6950
Wire Wire Line
	13450 7050 13800 7050
NoConn ~ 13450 6850
NoConn ~ 7700 4800
NoConn ~ 6300 4700
NoConn ~ 7700 2600
Text GLabel 3450 4200 0    60   Input ~ 0
CP2102_TXD
Text GLabel 3450 3550 0    60   Output ~ 0
CP2102_RXD
Wire Wire Line
	4150 3350 4150 3450
Wire Wire Line
	4150 3450 4150 3550
Connection ~ 4150 3450
Wire Wire Line
	4150 4200 4150 4100
Wire Wire Line
	4150 4000 4150 4100
Connection ~ 4150 4100
Wire Wire Line
	4950 4000 4950 3450
Wire Wire Line
	4950 3450 4150 3450
Wire Wire Line
	4950 4000 6300 4000
Wire Wire Line
	4150 4100 6300 4100
Wire Wire Line
	3450 4200 3650 4200
Wire Wire Line
	3450 3550 3650 3550
Text GLabel 3450 4100 0    60   Input ~ 0
PI_TXD
Text GLabel 3450 3450 0    60   Output ~ 0
PI_RXD
Wire Wire Line
	3450 4100 3650 4100
Wire Wire Line
	3450 3450 3650 3450
Text GLabel 9500 4300 0    60   Input ~ 0
J5_TXD
Text GLabel 9500 4400 0    60   Output ~ 0
J5_RXD
Text GLabel 3450 3350 0    60   Output ~ 0
J5_TXD
Text GLabel 3450 4000 0    60   Input ~ 0
J5_RXD
Wire Wire Line
	3650 4000 3450 4000
Wire Wire Line
	3450 3350 3650 3350
$Comp
L 74xx:74LS257 U13
U 1 1 5DE0EEA4
P 3900 7050
F 0 "U13" H 4000 7950 50  0000 C CNN
F 1 "74LVC257" H 4100 7850 50  0000 C CNN
F 2 "Package_SO:SOIC-16_3.9x9.9mm_P1.27mm" H 3900 7050 50  0001 C CNN
F 3 "http://www.ti.com/lit/gpn/sn74LS257" H 3900 7050 50  0001 C CNN
F 4 "D" H 150 900 50  0001 C CNN "Distributor"
F 5 "SN74LVC257ADR" H 150 900 50  0001 C CNN "Manufacturer"
F 6 "296-8504-1-ND" H 150 900 50  0001 C CNN "OrderNr"
	1    3900 7050
	1    0    0    -1  
$EndComp
Text Label 4400 6450 0    50   ~ 0
FPGA_TMS
Text Label 4400 6750 0    50   ~ 0
FPGA_TCK
Text Label 4400 7050 0    50   ~ 0
FPGA_TDI
Wire Wire Line
	3400 6450 3000 6450
Wire Wire Line
	3400 6550 3000 6550
Wire Wire Line
	3400 6750 3150 6750
Wire Wire Line
	3400 6850 3250 6850
Wire Wire Line
	3400 7050 3000 7050
Wire Wire Line
	3400 7150 3000 7150
Wire Wire Line
	3400 7350 3300 7350
Wire Wire Line
	3400 7450 3300 7450
$Comp
L power:GND #PWR0141
U 1 1 5DE450AA
P 3300 7750
F 0 "#PWR0141" H 3300 7500 50  0001 C CNN
F 1 "GND" H 3305 7577 50  0000 C CNN
F 2 "" H 3300 7750 50  0001 C CNN
F 3 "" H 3300 7750 50  0001 C CNN
	1    3300 7750
	1    0    0    -1  
$EndComp
Text GLabel 3000 6450 0    60   Input ~ 0
PI_FPGA_TMS
Text GLabel 3000 6750 0    60   Input ~ 0
PI_FPGA_TCK
Text GLabel 3000 7050 0    60   Input ~ 0
PI_FPGA_TDI
Text GLabel 3000 8250 0    60   Output ~ 0
PI_FPGA_TDO
Text Label 4450 8250 0    50   ~ 0
FPGA_TDO
Wire Wire Line
	3000 8250 3150 8250
Wire Wire Line
	4400 7050 4850 7050
Wire Wire Line
	4400 6750 4850 6750
Wire Wire Line
	4400 6450 4850 6450
Text GLabel 3000 8450 0    60   Output ~ 0
JTAG_FPGA_TDO
Wire Wire Line
	3000 8450 3150 8450
Wire Wire Line
	3150 8450 3150 8250
Connection ~ 3150 8250
Wire Wire Line
	3150 8250 4850 8250
Wire Wire Line
	3400 7750 3300 7750
Wire Wire Line
	3300 7750 3300 7450
Connection ~ 3300 7750
Connection ~ 3300 7450
Wire Wire Line
	3300 7350 3300 7450
Text GLabel 3000 7150 0    60   Input ~ 0
JTAG_FPGA_TDI
Text GLabel 3000 6850 0    60   Input ~ 0
JTAG_FPGA_TCK
Text GLabel 3000 6550 0    60   Input ~ 0
JTAG_FPGA_TMS
$Comp
L 74xx:74LS257 U14
U 1 1 5DEC2C4D
P 7900 7050
F 0 "U14" H 8000 7900 50  0000 C CNN
F 1 "74LVC257" H 8100 7800 50  0000 C CNN
F 2 "Package_SO:SOIC-16_3.9x9.9mm_P1.27mm" H 7900 7050 50  0001 C CNN
F 3 "http://www.ti.com/lit/gpn/sn74LS257" H 7900 7050 50  0001 C CNN
F 4 "D" H 1050 900 50  0001 C CNN "Distributor"
F 5 "SN74LVC257ADR" H 1050 900 50  0001 C CNN "Manufacturer"
F 6 "296-8504-1-ND" H 1050 900 50  0001 C CNN "OrderNr"
	1    7900 7050
	1    0    0    -1  
$EndComp
Text Label 8400 6450 0    50   ~ 0
RV_TMS
Wire Wire Line
	7400 6450 6400 6450
Wire Wire Line
	7400 6550 6400 6550
Wire Wire Line
	7400 6750 7000 6750
Wire Wire Line
	7400 6850 7200 6850
Wire Wire Line
	7400 7050 6400 7050
Wire Wire Line
	7400 7150 6400 7150
$Comp
L power:GND #PWR0142
U 1 1 5DEC2C62
P 7300 7750
F 0 "#PWR0142" H 7300 7500 50  0001 C CNN
F 1 "GND" H 7305 7577 50  0000 C CNN
F 2 "" H 7300 7750 50  0001 C CNN
F 3 "" H 7300 7750 50  0001 C CNN
	1    7300 7750
	1    0    0    -1  
$EndComp
Text GLabel 6400 6450 0    60   Input ~ 0
PI_RV_TMS
Text GLabel 6400 7050 0    60   Input ~ 0
PI_RV_TDI
Text GLabel 7000 8250 0    60   Output ~ 0
PI_RV_TDO
Text Label 8450 8250 0    50   ~ 0
RV_TDO
Wire Wire Line
	7000 8250 7150 8250
Wire Wire Line
	8400 7050 8850 7050
Wire Wire Line
	8400 6750 8850 6750
Wire Wire Line
	8400 6450 8850 6450
Text GLabel 7000 8450 0    60   Output ~ 0
JTAG_RV_TDO
Wire Wire Line
	7000 8450 7150 8450
Wire Wire Line
	7150 8450 7150 8250
Connection ~ 7150 8250
Wire Wire Line
	7150 8250 8850 8250
Wire Wire Line
	7400 7750 7300 7750
Text GLabel 6400 6850 0    60   Input ~ 0
JTAG_RV_TCK
Text GLabel 6400 6550 0    60   Input ~ 0
JTAG_RV_TMS
Text GLabel 6400 6750 0    60   Input ~ 0
PI_RV_TCK
Text GLabel 6400 7350 0    60   Input ~ 0
PI_RV_RESET
Text GLabel 6400 7150 0    60   Input ~ 0
JTAG_RV_TDI
Text GLabel 6400 7450 0    60   Input ~ 0
JTAG_RV_RESET
Wire Wire Line
	6400 7350 6800 7350
Wire Wire Line
	6400 7450 6600 7450
Text Label 8400 6750 0    50   ~ 0
RV_TCK
Text Label 8400 7050 0    50   ~ 0
RV_TDI
Wire Wire Line
	8400 7350 8850 7350
Text Label 8400 7350 0    50   ~ 0
RV_RESET
NoConn ~ 4400 7350
$Comp
L iccfpga-dev-rescue:+3V3 #PWR0143
U 1 1 5DF0350F
P 3900 6150
F 0 "#PWR0143" H 3900 6000 50  0001 C CNN
F 1 "+3V3" V 3915 6278 50  0000 L CNN
F 2 "" H 3900 6150 50  0001 C CNN
F 3 "" H 3900 6150 50  0001 C CNN
	1    3900 6150
	1    0    0    -1  
$EndComp
$Comp
L iccfpga-dev-rescue:+3V3 #PWR0144
U 1 1 5DF041CB
P 7900 6150
F 0 "#PWR0144" H 7900 6000 50  0001 C CNN
F 1 "+3V3" V 7915 6278 50  0000 L CNN
F 2 "" H 7900 6150 50  0001 C CNN
F 3 "" H 7900 6150 50  0001 C CNN
	1    7900 6150
	1    0    0    -1  
$EndComp
$Comp
L power:GND #PWR0145
U 1 1 5DF047B1
P 3900 8050
F 0 "#PWR0145" H 3900 7800 50  0001 C CNN
F 1 "GND" H 3905 7877 50  0000 C CNN
F 2 "" H 3900 8050 50  0001 C CNN
F 3 "" H 3900 8050 50  0001 C CNN
	1    3900 8050
	1    0    0    -1  
$EndComp
$Comp
L power:GND #PWR0146
U 1 1 5DF04BCD
P 7900 8050
F 0 "#PWR0146" H 7900 7800 50  0001 C CNN
F 1 "GND" H 7905 7877 50  0000 C CNN
F 2 "" H 7900 8050 50  0001 C CNN
F 3 "" H 7900 8050 50  0001 C CNN
	1    7900 8050
	1    0    0    -1  
$EndComp
Wire Wire Line
	3150 6350 3150 6750
Connection ~ 3150 6750
Wire Wire Line
	3150 6750 3000 6750
Wire Wire Line
	3250 6350 3250 6850
Connection ~ 3250 6850
Wire Wire Line
	3250 6850 3000 6850
$Comp
L iccfpga-dev-rescue:+3V3 #PWR0147
U 1 1 5DF1CBA1
P 3150 6050
F 0 "#PWR0147" H 3150 5900 50  0001 C CNN
F 1 "+3V3" V 3165 6178 50  0000 L CNN
F 2 "" H 3150 6050 50  0001 C CNN
F 3 "" H 3150 6050 50  0001 C CNN
	1    3150 6050
	1    0    0    -1  
$EndComp
$Comp
L iccfpga-dev-rescue:+3V3 #PWR0148
U 1 1 5DF1D1CA
P 3250 6050
F 0 "#PWR0148" H 3250 5900 50  0001 C CNN
F 1 "+3V3" V 3265 6178 50  0000 L CNN
F 2 "" H 3250 6050 50  0001 C CNN
F 3 "" H 3250 6050 50  0001 C CNN
	1    3250 6050
	1    0    0    -1  
$EndComp
$Comp
L Device:R R4
U 1 1 5DF1DCFB
P 3150 6200
F 0 "R4" H 3000 6250 50  0000 L CNN
F 1 "10k" H 2900 6150 50  0000 L CNN
F 2 "Resistor_SMD:R_0603_1608Metric" V 3080 6200 50  0001 C CNN
F 3 "~" H 3150 6200 50  0001 C CNN
F 4 "RC0603FR-0710KL" H 150 900 50  0001 C CNN "Manufacturer"
F 5 "311-10.0KHRCT-ND" H 150 900 50  0001 C CNN "OrderNr"
F 6 "D" H 150 900 50  0001 C CNN "Distributor"
	1    3150 6200
	1    0    0    -1  
$EndComp
$Comp
L Device:R R5
U 1 1 5DF1DFD6
P 3250 6200
F 0 "R5" H 3320 6246 50  0000 L CNN
F 1 "10k" H 3320 6155 50  0000 L CNN
F 2 "Resistor_SMD:R_0603_1608Metric" V 3180 6200 50  0001 C CNN
F 3 "~" H 3250 6200 50  0001 C CNN
F 4 "RC0603FR-0710KL" H 150 900 50  0001 C CNN "Manufacturer"
F 5 "311-10.0KHRCT-ND" H 150 900 50  0001 C CNN "OrderNr"
F 6 "D" H 150 900 50  0001 C CNN "Distributor"
	1    3250 6200
	1    0    0    -1  
$EndComp
$Comp
L iccfpga-dev-rescue:+3V3 #PWR0149
U 1 1 5DF1F29D
P 7000 6050
F 0 "#PWR0149" H 7000 5900 50  0001 C CNN
F 1 "+3V3" V 7015 6178 50  0000 L CNN
F 2 "" H 7000 6050 50  0001 C CNN
F 3 "" H 7000 6050 50  0001 C CNN
	1    7000 6050
	1    0    0    -1  
$EndComp
$Comp
L iccfpga-dev-rescue:+3V3 #PWR0150
U 1 1 5DF1F2A7
P 7200 6050
F 0 "#PWR0150" H 7200 5900 50  0001 C CNN
F 1 "+3V3" V 7215 6178 50  0000 L CNN
F 2 "" H 7200 6050 50  0001 C CNN
F 3 "" H 7200 6050 50  0001 C CNN
	1    7200 6050
	1    0    0    -1  
$EndComp
$Comp
L Device:R R6
U 1 1 5DF1F2B1
P 7000 6200
F 0 "R6" V 7100 6150 50  0000 L CNN
F 1 "10k" V 7000 6150 50  0000 L CNN
F 2 "Resistor_SMD:R_0603_1608Metric" V 6930 6200 50  0001 C CNN
F 3 "~" H 7000 6200 50  0001 C CNN
F 4 "RC0603FR-0710KL" H 900 900 50  0001 C CNN "Manufacturer"
F 5 "311-10.0KHRCT-ND" H 900 900 50  0001 C CNN "OrderNr"
F 6 "D" H 900 900 50  0001 C CNN "Distributor"
	1    7000 6200
	1    0    0    -1  
$EndComp
$Comp
L Device:R R12
U 1 1 5DF1F2BB
P 7200 6200
F 0 "R12" V 7300 6150 50  0000 L CNN
F 1 "10k" V 7200 6150 50  0000 L CNN
F 2 "Resistor_SMD:R_0603_1608Metric" V 7130 6200 50  0001 C CNN
F 3 "~" H 7200 6200 50  0001 C CNN
F 4 "RC0603FR-0710KL" H 1000 900 50  0001 C CNN "Manufacturer"
F 5 "311-10.0KHRCT-ND" H 1000 900 50  0001 C CNN "OrderNr"
F 6 "D" H 1000 900 50  0001 C CNN "Distributor"
	1    7200 6200
	1    0    0    -1  
$EndComp
Wire Wire Line
	7000 6350 7000 6750
Connection ~ 7000 6750
Wire Wire Line
	7200 6350 7200 6850
Connection ~ 7200 6850
Text GLabel 10600 6750 2    60   Output ~ 0
JTAG_FPGA_TMS
Text GLabel 10600 6850 2    60   Output ~ 0
JTAG_FPGA_TCK
Text GLabel 10600 6950 2    60   Input ~ 0
JTAG_FPGA_TDO
Text GLabel 10600 7050 2    60   Output ~ 0
JTAG_FPGA_TDI
Text GLabel 12650 6750 0    60   Output ~ 0
JTAG_RV_TCK
Text GLabel 12650 6850 0    60   Input ~ 0
JTAG_RV_TDO
Text GLabel 12650 6950 0    60   Output ~ 0
JTAG_RV_TMS
Text GLabel 12650 7150 0    60   Output ~ 0
JTAG_RV_TDI
Text GLabel 12650 7050 0    60   Output ~ 0
JTAG_RV_RESET
$Comp
L Connector_Generic:Conn_02x04_Odd_Even J7
U 1 1 5DF9E391
P 3850 3450
F 0 "J7" H 3900 3767 50  0000 C CNN
F 1 "TX" H 3900 3676 50  0000 C CNN
F 2 "Connector_PinHeader_2.54mm:PinHeader_2x04_P2.54mm_Vertical" H 3850 3450 50  0001 C CNN
F 3 "~" H 3850 3450 50  0001 C CNN
F 4 "D" H 1050 900 50  0001 C CNN "Distributor"
F 5 "PRPC004DAAN-RC" H 3850 3450 50  0001 C CNN "Manufacturer"
F 6 "S2011EC-04-ND" H 3850 3450 50  0001 C CNN "OrderNr"
	1    3850 3450
	1    0    0    -1  
$EndComp
$Comp
L Connector_Generic:Conn_02x04_Odd_Even J8
U 1 1 5DF9F916
P 3850 4100
F 0 "J8" H 3900 4417 50  0000 C CNN
F 1 "RX" H 3900 4326 50  0000 C CNN
F 2 "Connector_PinHeader_2.54mm:PinHeader_2x04_P2.54mm_Vertical" H 3850 4100 50  0001 C CNN
F 3 "~" H 3850 4100 50  0001 C CNN
F 4 "D" H 1050 900 50  0001 C CNN "Distributor"
F 5 "PRPC004DAAN-RC" H 3850 4100 50  0001 C CNN "Manufacturer"
F 6 "S2011EC-04-ND" H 3850 4100 50  0001 C CNN "OrderNr"
	1    3850 4100
	1    0    0    -1  
$EndComp
Wire Wire Line
	4150 4300 4150 4200
Connection ~ 4150 4200
Wire Wire Line
	4150 3650 4150 3550
Connection ~ 4150 3550
Text GLabel 3450 4300 0    60   Input ~ 0
JTAG_TXD
Text GLabel 3450 3650 0    60   Output ~ 0
JTAG_RXD
Wire Wire Line
	3450 3650 3650 3650
Wire Wire Line
	3450 4300 3650 4300
Text GLabel 13800 6950 2    60   Output ~ 0
JTAG_TXD
Text GLabel 13800 7050 2    60   Input ~ 0
JTAG_RXD
$Comp
L iccfpga-dev-rescue:+3V3 #PWR0151
U 1 1 5E0B88B1
P 3900 8950
F 0 "#PWR0151" H 3900 8800 50  0001 C CNN
F 1 "+3V3" V 3915 9078 50  0000 L CNN
F 2 "" H 3900 8950 50  0001 C CNN
F 3 "" H 3900 8950 50  0001 C CNN
	1    3900 8950
	0    -1   -1   0   
$EndComp
$Comp
L Device:C C7
U 1 1 5E0F0299
P 4300 5800
F 0 "C7" H 4415 5846 50  0000 L CNN
F 1 "100n" H 4415 5755 50  0000 L CNN
F 2 "Capacitor_SMD:C_0603_1608Metric" H 4338 5650 50  0001 C CNN
F 3 "~" H 4300 5800 50  0001 C CNN
F 4 "C0603C104M4RACTU" H 150 900 50  0001 C CNN "Manufacturer"
F 5 "399-1099-1-ND" H 150 900 50  0001 C CNN "OrderNr"
F 6 "D" H 150 900 50  0001 C CNN "Distributor"
	1    4300 5800
	1    0    0    -1  
$EndComp
$Comp
L iccfpga-dev-rescue:+3V3 #PWR0155
U 1 1 5E0F0A2A
P 4300 5650
F 0 "#PWR0155" H 4300 5500 50  0001 C CNN
F 1 "+3V3" V 4315 5778 50  0000 L CNN
F 2 "" H 4300 5650 50  0001 C CNN
F 3 "" H 4300 5650 50  0001 C CNN
	1    4300 5650
	1    0    0    -1  
$EndComp
$Comp
L power:GND #PWR0156
U 1 1 5E0F0EEA
P 4300 5950
F 0 "#PWR0156" H 4300 5700 50  0001 C CNN
F 1 "GND" H 4305 5777 50  0000 C CNN
F 2 "" H 4300 5950 50  0001 C CNN
F 3 "" H 4300 5950 50  0001 C CNN
	1    4300 5950
	1    0    0    -1  
$EndComp
$Comp
L Device:C C8
U 1 1 5E0F26A7
P 8300 5800
F 0 "C8" H 8415 5846 50  0000 L CNN
F 1 "100n" H 8415 5755 50  0000 L CNN
F 2 "Capacitor_SMD:C_0603_1608Metric" H 8338 5650 50  0001 C CNN
F 3 "~" H 8300 5800 50  0001 C CNN
F 4 "C0603C104M4RACTU" H 1050 900 50  0001 C CNN "Manufacturer"
F 5 "399-1099-1-ND" H 1050 900 50  0001 C CNN "OrderNr"
F 6 "D" H 1050 900 50  0001 C CNN "Distributor"
	1    8300 5800
	1    0    0    -1  
$EndComp
$Comp
L iccfpga-dev-rescue:+3V3 #PWR0157
U 1 1 5E0F26B1
P 8300 5650
F 0 "#PWR0157" H 8300 5500 50  0001 C CNN
F 1 "+3V3" V 8315 5778 50  0000 L CNN
F 2 "" H 8300 5650 50  0001 C CNN
F 3 "" H 8300 5650 50  0001 C CNN
	1    8300 5650
	1    0    0    -1  
$EndComp
$Comp
L power:GND #PWR0158
U 1 1 5E0F26BB
P 8300 5950
F 0 "#PWR0158" H 8300 5700 50  0001 C CNN
F 1 "GND" H 8305 5777 50  0000 C CNN
F 2 "" H 8300 5950 50  0001 C CNN
F 3 "" H 8300 5950 50  0001 C CNN
	1    8300 5950
	1    0    0    -1  
$EndComp
$Comp
L Connector_Generic:Conn_02x03_Odd_Even J9
U 1 1 5E1F1EA1
P 4350 9050
F 0 "J9" H 4400 9367 50  0000 C CNN
F 1 "JTAG SEL" H 4400 9276 50  0000 C CNN
F 2 "Connector_PinHeader_2.54mm:PinHeader_2x03_P2.54mm_Vertical" H 4350 9050 50  0001 C CNN
F 3 "~" H 4350 9050 50  0001 C CNN
F 4 "D" H 150 900 50  0001 C CNN "Distributor"
F 5 "PRPC003DAAN-RC" H 4350 9050 50  0001 C CNN "Manufacturer"
F 6 "S2011EC-03-ND" H 4350 9050 50  0001 C CNN "OrderNr"
	1    4350 9050
	1    0    0    -1  
$EndComp
$Comp
L iccfpga-dev-rescue:+3V3 #PWR0153
U 1 1 5E1F2AEE
P 4900 8950
F 0 "#PWR0153" H 4900 8800 50  0001 C CNN
F 1 "+3V3" V 4915 9078 50  0000 L CNN
F 2 "" H 4900 8950 50  0001 C CNN
F 3 "" H 4900 8950 50  0001 C CNN
	1    4900 8950
	0    1    1    0   
$EndComp
Wire Wire Line
	3900 8950 4150 8950
Wire Wire Line
	4650 8950 4900 8950
Wire Wire Line
	2050 7650 2050 9050
Wire Wire Line
	2050 9050 4150 9050
Wire Wire Line
	2050 7650 3400 7650
Wire Wire Line
	5400 7650 5400 9050
Wire Wire Line
	5400 9050 4650 9050
Wire Wire Line
	5400 7650 7400 7650
$Comp
L power:GND #PWR0154
U 1 1 5E226A55
P 4150 9150
F 0 "#PWR0154" H 4150 8900 50  0001 C CNN
F 1 "GND" H 4155 8977 50  0000 C CNN
F 2 "" H 4150 9150 50  0001 C CNN
F 3 "" H 4150 9150 50  0001 C CNN
	1    4150 9150
	0    1    1    0   
$EndComp
$Comp
L power:GND #PWR0160
U 1 1 5E2270E0
P 4650 9150
F 0 "#PWR0160" H 4650 8900 50  0001 C CNN
F 1 "GND" H 4655 8977 50  0000 C CNN
F 2 "" H 4650 9150 50  0001 C CNN
F 3 "" H 4650 9150 50  0001 C CNN
	1    4650 9150
	0    -1   -1   0   
$EndComp
$Comp
L Connector_Generic:Conn_02x06_Top_Bottom J3
U 1 1 5DBF447F
P 10150 2700
F 0 "J3" H 10200 3025 50  0000 C CNN
F 1 "PMOD 1" H 10200 3026 50  0001 C CNN
F 2 "myfootprints:PinSocket_2X06_P2.54mm_Horizontal_SMD_PMOD" H 10150 2700 50  0001 C CNN
F 3 "~" H 10150 2700 50  0001 C CNN
F 4 "D" H 1050 900 50  0001 C CNN "Distributor"
F 5 "M20-7920642R" H 1050 900 50  0001 C CNN "Manufacturer"
F 6 "952-3206-1-ND" H 1050 900 50  0001 C CNN "OrderNr"
	1    10150 2700
	1    0    0    -1  
$EndComp
$Comp
L mylib:r_network_4 U7
U 1 1 5DCEC827
P 9750 2700
F 0 "U7" V 9609 2700 60  0001 C CNN
F 1 "200" V 9609 2700 60  0001 C CNN
F 2 "Resistor_SMD:R_Array_Convex_4x0603" H 9750 2700 60  0001 C CNN
F 3 "" H 9750 2700 60  0001 C CNN
F 4 "D" H 1050 900 50  0001 C CNN "Distributor"
F 5 "CAY16-201J4LF" H 1050 900 50  0001 C CNN "Manufacturer"
F 6 "CAY16-201J4LFCT-ND" H 1050 900 50  0001 C CNN "OrderNr"
	1    9750 2700
	0    1    1    0   
$EndComp
$Comp
L Device:R R2
U 1 1 5DF2274C
P 11300 3200
F 0 "R2" H 11100 3250 50  0000 L CNN
F 1 "3k3" H 11100 3150 50  0000 L CNN
F 2 "Resistor_SMD:R_0603_1608Metric" V 11230 3200 50  0001 C CNN
F 3 "~" H 11300 3200 50  0001 C CNN
F 4 "CRGCQ0603F3K3" H 1050 900 50  0001 C CNN "Manufacturer"
F 5 "A129694CT-ND" H 1050 900 50  0001 C CNN "OrderNr"
F 6 "D" H 1050 900 50  0001 C CNN "Distributor"
	1    11300 3200
	1    0    0    -1  
$EndComp
$Comp
L Device:R R7
U 1 1 5DF23225
P 11400 3200
F 0 "R7" H 11470 3246 50  0000 L CNN
F 1 "3k3" H 11470 3155 50  0000 L CNN
F 2 "Resistor_SMD:R_0603_1608Metric" V 11330 3200 50  0001 C CNN
F 3 "~" H 11400 3200 50  0001 C CNN
F 4 "CRGCQ0603F3K3" H 1050 900 50  0001 C CNN "Manufacturer"
F 5 "A129694CT-ND" H 1050 900 50  0001 C CNN "OrderNr"
F 6 "D" H 1050 900 50  0001 C CNN "Distributor"
	1    11400 3200
	1    0    0    -1  
$EndComp
$Comp
L Connector_Generic:Conn_02x02_Odd_Even J10
U 1 1 5DF240C7
P 11400 2650
F 0 "J10" V 11404 2730 50  0000 L CNN
F 1 "I2C PUP" V 11495 2730 50  0000 L CNN
F 2 "Connector_PinHeader_2.54mm:PinHeader_2x02_P2.54mm_Vertical" H 11400 2650 50  0001 C CNN
F 3 "~" H 11400 2650 50  0001 C CNN
F 4 "D" H 1050 900 50  0001 C CNN "Distributor"
F 5 "PRPC002DAAN-RC" H 1050 900 50  0001 C CNN "Manufacturer"
F 6 "S2011EC-02-ND" H 1050 900 50  0001 C CNN "OrderNr"
	1    11400 2650
	0    1    1    0   
$EndComp
$Comp
L iccfpga-dev-rescue:+3V3 #PWR0161
U 1 1 5DF25484
P 11300 2400
F 0 "#PWR0161" H 11300 2250 50  0001 C CNN
F 1 "+3V3" V 11315 2528 50  0000 L CNN
F 2 "" H 11300 2400 50  0001 C CNN
F 3 "" H 11300 2400 50  0001 C CNN
	1    11300 2400
	1    0    0    -1  
$EndComp
Wire Wire Line
	11300 2400 11300 2450
$Comp
L iccfpga-dev-rescue:+3V3 #PWR0163
U 1 1 5DF32DF4
P 11400 2400
F 0 "#PWR0163" H 11400 2250 50  0001 C CNN
F 1 "+3V3" V 11415 2528 50  0000 L CNN
F 2 "" H 11400 2400 50  0001 C CNN
F 3 "" H 11400 2400 50  0001 C CNN
	1    11400 2400
	1    0    0    -1  
$EndComp
Wire Wire Line
	11400 2400 11400 2450
Wire Wire Line
	11300 2950 11300 3050
Wire Wire Line
	11400 2950 11400 3050
Wire Wire Line
	10800 3500 11300 3500
Wire Wire Line
	11300 3350 11300 3500
Connection ~ 11300 3500
Wire Wire Line
	11300 3500 11550 3500
Wire Wire Line
	10800 3600 11400 3600
Wire Wire Line
	11400 3350 11400 3600
Connection ~ 11400 3600
Wire Wire Line
	11400 3600 11550 3600
$Comp
L iccfpga-dev-rescue:+3V3 #PWR0164
U 1 1 5E1B6BFE
P 6600 6050
F 0 "#PWR0164" H 6600 5900 50  0001 C CNN
F 1 "+3V3" V 6615 6178 50  0000 L CNN
F 2 "" H 6600 6050 50  0001 C CNN
F 3 "" H 6600 6050 50  0001 C CNN
	1    6600 6050
	1    0    0    -1  
$EndComp
$Comp
L iccfpga-dev-rescue:+3V3 #PWR0165
U 1 1 5E1B6C08
P 6800 6050
F 0 "#PWR0165" H 6800 5900 50  0001 C CNN
F 1 "+3V3" V 6815 6178 50  0000 L CNN
F 2 "" H 6800 6050 50  0001 C CNN
F 3 "" H 6800 6050 50  0001 C CNN
	1    6800 6050
	1    0    0    -1  
$EndComp
$Comp
L Device:R R9
U 1 1 5E1B6C15
P 6600 6200
F 0 "R9" V 6700 6150 50  0000 L CNN
F 1 "10k" V 6600 6150 50  0000 L CNN
F 2 "Resistor_SMD:R_0603_1608Metric" V 6530 6200 50  0001 C CNN
F 3 "~" H 6600 6200 50  0001 C CNN
F 4 "RC0603FR-0710KL" H 500 900 50  0001 C CNN "Manufacturer"
F 5 "311-10.0KHRCT-ND" H 500 900 50  0001 C CNN "OrderNr"
F 6 "D" H 500 900 50  0001 C CNN "Distributor"
	1    6600 6200
	1    0    0    -1  
$EndComp
$Comp
L Device:R R15
U 1 1 5E1B6C22
P 6800 6200
F 0 "R15" V 6900 6150 50  0000 L CNN
F 1 "10k" V 6800 6150 50  0000 L CNN
F 2 "Resistor_SMD:R_0603_1608Metric" V 6730 6200 50  0001 C CNN
F 3 "~" H 6800 6200 50  0001 C CNN
F 4 "RC0603FR-0710KL" H 600 900 50  0001 C CNN "Manufacturer"
F 5 "311-10.0KHRCT-ND" H 600 900 50  0001 C CNN "OrderNr"
F 6 "D" H 600 900 50  0001 C CNN "Distributor"
	1    6800 6200
	1    0    0    -1  
$EndComp
Wire Wire Line
	6400 6750 7000 6750
Wire Wire Line
	6400 6850 7200 6850
Wire Wire Line
	6800 6350 6800 7350
Connection ~ 6800 7350
Wire Wire Line
	6800 7350 7400 7350
Wire Wire Line
	6600 6350 6600 7450
Connection ~ 6600 7450
Wire Wire Line
	6600 7450 7400 7450
$EndSCHEMATC
