EESchema Schematic File Version 4
EELAYER 30 0
EELAYER END
$Descr A4 11693 8268
encoding utf-8
Sheet 2 5
Title ""
Date ""
Rev ""
Comp ""
Comment1 ""
Comment2 ""
Comment3 ""
Comment4 ""
$EndDescr
$Comp
L iccfpga-dev-rescue:C C14
U 1 1 5ADF4C95
P 8250 3900
F 0 "C14" H 8050 3800 50  0000 L CNN
F 1 "100n" H 8050 4000 50  0000 L CNN
F 2 "Capacitor_SMD:C_0603_1608Metric" H 8288 3750 50  0001 C CNN
F 3 "" H 8250 3900 50  0001 C CNN
F 4 "C0603C104M4RACTU" H 0   0   50  0001 C CNN "Manufacturer"
F 5 "399-1099-1-ND" H 0   0   50  0001 C CNN "OrderNr"
F 6 "D" H 0   0   50  0001 C CNN "Distributor"
	1    8250 3900
	1    0    0    -1  
$EndComp
$Comp
L iccfpga-dev-rescue:C C12
U 1 1 5ADF4CEF
P 6400 3900
F 0 "C12" H 6425 4000 50  0000 L CNN
F 1 "100n" H 6425 3800 50  0000 L CNN
F 2 "Capacitor_SMD:C_0603_1608Metric" H 6438 3750 50  0001 C CNN
F 3 "" H 6400 3900 50  0001 C CNN
F 4 "C0603C104M4RACTU" H 0   0   50  0001 C CNN "Manufacturer"
F 5 "399-1099-1-ND" H 0   0   50  0001 C CNN "OrderNr"
F 6 "D" H 0   0   50  0001 C CNN "Distributor"
	1    6400 3900
	-1   0    0    -1  
$EndComp
$Comp
L iccfpga-dev-rescue:C C11
U 1 1 5ADF4CF5
P 6650 3900
F 0 "C11" H 6500 3800 50  0000 L CNN
F 1 "10µ" H 6500 4000 50  0000 L CNN
F 2 "Capacitor_SMD:C_1206_3216Metric" H 6688 3750 50  0001 C CNN
F 3 "" H 6650 3900 50  0001 C CNN
F 4 "CL31A106KAHNNNE" H 0   0   50  0001 C CNN "Manufacturer"
F 5 "1276-1075-1-ND" H 0   0   50  0001 C CNN "OrderNr"
F 6 "D" H 0   0   50  0001 C CNN "Distributor"
	1    6650 3900
	1    0    0    -1  
$EndComp
$Comp
L iccfpga-dev-rescue:C C10
U 1 1 5ADF4CFB
P 6900 3900
F 0 "C10" H 6900 3800 50  0000 L CNN
F 1 "10µ" H 6900 4000 50  0000 L CNN
F 2 "Capacitor_SMD:C_1206_3216Metric" H 6938 3750 50  0001 C CNN
F 3 "" H 6900 3900 50  0001 C CNN
F 4 "CL31A106KAHNNNE" H 0   0   50  0001 C CNN "Manufacturer"
F 5 "1276-1075-1-ND" H 0   0   50  0001 C CNN "OrderNr"
F 6 "D" H 0   0   50  0001 C CNN "Distributor"
	1    6900 3900
	-1   0    0    -1  
$EndComp
$Comp
L iccfpga-dev-rescue:GND #PWR02
U 1 1 5AED1C1D
P 1500 5850
F 0 "#PWR02" H 1500 5600 50  0001 C CNN
F 1 "GND" H 1500 5700 50  0000 C CNN
F 2 "" H 1500 5850 50  0001 C CNN
F 3 "" H 1500 5850 50  0001 C CNN
	1    1500 5850
	1    0    0    -1  
$EndComp
$Comp
L iccfpga-dev-rescue:C C71
U 1 1 5AED1C2B
P 1500 5700
F 0 "C71" H 1525 5800 50  0000 L CNN
F 1 "47µ" H 1525 5600 50  0000 L CNN
F 2 "Capacitor_SMD:C_1210_3225Metric" H 1538 5550 50  0001 C CNN
F 3 "" H 1500 5700 50  0001 C CNN
F 4 "D" H 1500 5700 60  0001 C CNN "Distributor"
F 5 "C1210C476M9PACTU" H 0   0   50  0001 C CNN "Manufacturer"
F 6 "399-4961-1-ND" H 0   0   50  0001 C CNN "OrderNr"
	1    1500 5700
	1    0    0    -1  
$EndComp
$Comp
L iccfpga-dev-rescue:GND #PWR06
U 1 1 5AED1C47
P 2000 5850
F 0 "#PWR06" H 2000 5600 50  0001 C CNN
F 1 "GND" H 2000 5700 50  0000 C CNN
F 2 "" H 2000 5850 50  0001 C CNN
F 3 "" H 2000 5850 50  0001 C CNN
	1    2000 5850
	1    0    0    -1  
$EndComp
$Comp
L iccfpga-dev-rescue:C C79
U 1 1 5AED1C55
P 2000 5700
F 0 "C79" H 2025 5800 50  0000 L CNN
F 1 "47µ" H 2025 5600 50  0000 L CNN
F 2 "Capacitor_SMD:C_1210_3225Metric" H 2038 5550 50  0001 C CNN
F 3 "" H 2000 5700 50  0001 C CNN
F 4 "D" H 2000 5700 60  0001 C CNN "Distributor"
F 5 "C1210C476M9PACTU" H 0   0   50  0001 C CNN "Manufacturer"
F 6 "399-4961-1-ND" H 0   0   50  0001 C CNN "OrderNr"
	1    2000 5700
	1    0    0    -1  
$EndComp
$Comp
L iccfpga-dev-rescue:BD9D321EFJ U3
U 1 1 5B166084
P 7700 4150
F 0 "U3" H 7450 4475 60  0000 C CNN
F 1 "BD9D321EFJ" H 7700 3600 60  0000 C CNN
F 2 "Package_SO:HTSOP-8-1EP_3.9x4.9mm_P1.27mm_ThermalVias" H 7325 3750 60  0001 C CNN
F 3 "" H 7325 3750 60  0001 C CNN
F 4 "BD9D321EFJ-E2CT-ND" H 7700 4150 60  0001 C CNN "OrderNr"
F 5 "D" H 7700 4150 60  0001 C CNN "Distributor"
F 6 "BD9D321EFJ-E2" H 7700 4150 60  0001 C CNN "Manufacturer"
	1    7700 4150
	1    0    0    -1  
$EndComp
$Comp
L iccfpga-dev-rescue:C C3
U 1 1 5B166281
P 6650 4600
F 0 "C3" H 6675 4700 50  0000 L CNN
F 1 "1µ" H 6675 4500 50  0000 L CNN
F 2 "Capacitor_SMD:C_0805_2012Metric" H 6688 4450 50  0001 C CNN
F 3 "" H 6650 4600 50  0001 C CNN
F 4 "CL21B105KOFNNNG" H 0   0   50  0001 C CNN "Manufacturer"
F 5 "1276-6471-1-ND" H 0   0   50  0001 C CNN "OrderNr"
F 6 "D" H 0   0   50  0001 C CNN "Distributor"
	1    6650 4600
	1    0    0    -1  
$EndComp
$Comp
L iccfpga-dev-rescue:C C4
U 1 1 5B16637C
P 6900 4600
F 0 "C4" H 6925 4700 50  0000 L CNN
F 1 "3.3n" H 6925 4500 50  0000 L CNN
F 2 "Capacitor_SMD:C_0603_1608Metric" H 6938 4450 50  0001 C CNN
F 3 "" H 6900 4600 50  0001 C CNN
F 4 "CC0603KRX7R9BB332" H 0   0   50  0001 C CNN "Manufacturer"
F 5 "311-1082-1-ND" H 0   0   50  0001 C CNN "OrderNr"
F 6 "D" H 0   0   50  0001 C CNN "Distributor"
	1    6900 4600
	1    0    0    -1  
$EndComp
$Comp
L iccfpga-dev-rescue:C C5
U 1 1 5B1666C4
P 8900 4100
F 0 "C5" H 8925 4200 50  0000 L CNN
F 1 "47µ" H 8925 4000 50  0000 L CNN
F 2 "Capacitor_SMD:C_1210_3225Metric" H 8938 3950 50  0001 C CNN
F 3 "" H 8900 4100 50  0001 C CNN
F 4 "D" H 8900 4100 60  0001 C CNN "Distributor"
F 5 "C1210C476M9PACTU" H 0   0   50  0001 C CNN "Manufacturer"
F 6 "399-4961-1-ND" H 0   0   50  0001 C CNN "OrderNr"
	1    8900 4100
	1    0    0    -1  
$EndComp
$Comp
L iccfpga-dev-rescue:C C6
U 1 1 5B1667BF
P 9100 4100
F 0 "C6" H 9125 4200 50  0000 L CNN
F 1 "47µ" H 9125 4000 50  0000 L CNN
F 2 "Capacitor_SMD:C_1210_3225Metric" H 9138 3950 50  0001 C CNN
F 3 "" H 9100 4100 50  0001 C CNN
F 4 "D" H 9100 4100 60  0001 C CNN "Distributor"
F 5 "C1210C476M9PACTU" H 0   0   50  0001 C CNN "Manufacturer"
F 6 "399-4961-1-ND" H 0   0   50  0001 C CNN "OrderNr"
	1    9100 4100
	1    0    0    -1  
$EndComp
$Comp
L iccfpga-dev-rescue:L L1
U 1 1 5B1669AB
P 8450 3700
F 0 "L1" V 8400 3700 50  0000 C CNN
F 1 "2,2µH" V 8525 3700 50  0000 C CNN
F 2 "myfootprints:SPM4012" H 8450 3700 50  0001 C CNN
F 3 "" H 8450 3700 50  0001 C CNN
F 4 "445-15779-1-ND" H 8450 3700 60  0001 C CNN "OrderNr"
F 5 "D" H 8450 3700 60  0001 C CNN "Distributor"
F 6 "SPM4012T-2R2M" H 8450 3700 60  0001 C CNN "Manufacturer"
	1    8450 3700
	0    -1   -1   0   
$EndComp
$Comp
L iccfpga-dev-rescue:GND #PWR019
U 1 1 5B166ADD
P 7150 4800
F 0 "#PWR019" H 7150 4550 50  0001 C CNN
F 1 "GND" H 7150 4650 50  0000 C CNN
F 2 "" H 7150 4800 50  0001 C CNN
F 3 "" H 7150 4800 50  0001 C CNN
	1    7150 4800
	1    0    0    -1  
$EndComp
$Comp
L iccfpga-dev-rescue:GND #PWR017
U 1 1 5B166F68
P 6900 4800
F 0 "#PWR017" H 6900 4550 50  0001 C CNN
F 1 "GND" H 6900 4650 50  0000 C CNN
F 2 "" H 6900 4800 50  0001 C CNN
F 3 "" H 6900 4800 50  0001 C CNN
	1    6900 4800
	1    0    0    -1  
$EndComp
$Comp
L iccfpga-dev-rescue:GND #PWR015
U 1 1 5B166FD0
P 6650 4800
F 0 "#PWR015" H 6650 4550 50  0001 C CNN
F 1 "GND" H 6650 4650 50  0000 C CNN
F 2 "" H 6650 4800 50  0001 C CNN
F 3 "" H 6650 4800 50  0001 C CNN
	1    6650 4800
	1    0    0    -1  
$EndComp
$Comp
L iccfpga-dev-rescue:GND #PWR024
U 1 1 5B167EDC
P 8650 4900
F 0 "#PWR024" H 8650 4650 50  0001 C CNN
F 1 "GND" H 8650 4750 50  0000 C CNN
F 2 "" H 8650 4900 50  0001 C CNN
F 3 "" H 8650 4900 50  0001 C CNN
	1    8650 4900
	1    0    0    -1  
$EndComp
$Comp
L iccfpga-dev-rescue:GND #PWR027
U 1 1 5B168058
P 8900 4450
F 0 "#PWR027" H 8900 4200 50  0001 C CNN
F 1 "GND" H 8900 4300 50  0000 C CNN
F 2 "" H 8900 4450 50  0001 C CNN
F 3 "" H 8900 4450 50  0001 C CNN
	1    8900 4450
	1    0    0    -1  
$EndComp
$Comp
L iccfpga-dev-rescue:GND #PWR028
U 1 1 5B1680C0
P 9100 4450
F 0 "#PWR028" H 9100 4200 50  0001 C CNN
F 1 "GND" H 9100 4300 50  0000 C CNN
F 2 "" H 9100 4450 50  0001 C CNN
F 3 "" H 9100 4450 50  0001 C CNN
	1    9100 4450
	1    0    0    -1  
$EndComp
$Comp
L iccfpga-dev-rescue:+5V #PWR010
U 1 1 5B169AAA
P 6400 3650
F 0 "#PWR010" H 6400 3500 50  0001 C CNN
F 1 "+5V" H 6400 3790 50  0000 C CNN
F 2 "" H 6400 3650 50  0001 C CNN
F 3 "" H 6400 3650 50  0001 C CNN
	1    6400 3650
	1    0    0    -1  
$EndComp
$Comp
L iccfpga-dev-rescue:GND #PWR011
U 1 1 5B16A5B6
P 6400 4100
F 0 "#PWR011" H 6400 3850 50  0001 C CNN
F 1 "GND" H 6400 3950 50  0000 C CNN
F 2 "" H 6400 4100 50  0001 C CNN
F 3 "" H 6400 4100 50  0001 C CNN
	1    6400 4100
	1    0    0    -1  
$EndComp
$Comp
L iccfpga-dev-rescue:GND #PWR014
U 1 1 5B16A625
P 6650 4100
F 0 "#PWR014" H 6650 3850 50  0001 C CNN
F 1 "GND" H 6650 3950 50  0000 C CNN
F 2 "" H 6650 4100 50  0001 C CNN
F 3 "" H 6650 4100 50  0001 C CNN
	1    6650 4100
	1    0    0    -1  
$EndComp
$Comp
L iccfpga-dev-rescue:GND #PWR016
U 1 1 5B16A68D
P 6900 4100
F 0 "#PWR016" H 6900 3850 50  0001 C CNN
F 1 "GND" H 6900 3950 50  0000 C CNN
F 2 "" H 6900 4100 50  0001 C CNN
F 3 "" H 6900 4100 50  0001 C CNN
	1    6900 4100
	1    0    0    -1  
$EndComp
$Comp
L iccfpga-dev-rescue:R R8
U 1 1 5B196F47
P 9300 3700
F 0 "R8" V 9380 3700 50  0000 C CNN
F 1 "0R" V 9300 3700 50  0000 C CNN
F 2 "Resistor_SMD:R_1206_3216Metric" V 9230 3700 50  0001 C CNN
F 3 "" H 9300 3700 50  0001 C CNN
F 4 "D" H 0   0   50  0001 C CNN "Distributor"
F 5 "RMCF1206ZT0R00" H 0   0   50  0001 C CNN "Manufacturer"
F 6 "RMCF1206ZT0R00CT-ND" H 0   0   50  0001 C CNN "OrderNr"
	1    9300 3700
	0    1    1    0   
$EndComp
Wire Wire Line
	6650 4300 6650 4450
Wire Wire Line
	6900 4400 6900 4450
Wire Wire Line
	6650 4800 6650 4750
Wire Wire Line
	6900 4750 6900 4800
Wire Wire Line
	8600 3700 8650 3700
Wire Wire Line
	8900 4250 8900 4450
Wire Wire Line
	9100 4450 9100 4250
Wire Wire Line
	8900 3700 8900 3950
Connection ~ 8650 3700
Connection ~ 8900 3700
Wire Wire Line
	8200 4100 8250 4100
Wire Wire Line
	8250 4100 8250 4050
Wire Wire Line
	8250 3750 8250 3700
Wire Wire Line
	8200 3700 8250 3700
Connection ~ 8250 3700
Wire Wire Line
	8200 4550 8650 4550
Wire Wire Line
	6650 4300 7200 4300
Wire Wire Line
	6900 4400 7200 4400
Wire Wire Line
	7200 4500 7150 4500
Wire Wire Line
	7150 4500 7150 4600
Wire Wire Line
	7200 4600 7150 4600
Connection ~ 7150 4600
Wire Wire Line
	7200 3950 7100 3950
Wire Wire Line
	7100 3950 7100 3700
Wire Wire Line
	6400 3700 6650 3700
Wire Wire Line
	6400 3650 6400 3700
Connection ~ 7100 3700
Connection ~ 6400 3700
Wire Wire Line
	6650 3750 6650 3700
Connection ~ 6650 3700
Wire Wire Line
	6900 3750 6900 3700
Connection ~ 6900 3700
Wire Wire Line
	6900 4100 6900 4050
Wire Wire Line
	6650 4050 6650 4100
Wire Wire Line
	6400 4100 6400 4050
Connection ~ 9100 3700
Wire Wire Line
	9100 3700 9100 3950
Wire Wire Line
	9500 3600 9500 3700
Wire Wire Line
	9500 3700 9450 3700
$Comp
L iccfpga-dev-rescue:MAX40200 U10
U 1 1 5B344EE4
P 3600 3350
F 0 "U10" H 3600 3200 60  0000 C CNN
F 1 "MAX40200" H 3600 3500 60  0000 C CNN
F 2 "Package_TO_SOT_SMD:SOT-23-5" H 3500 3350 60  0001 C CNN
F 3 "" H 3500 3350 60  0001 C CNN
F 4 "MAX40200AUK+TCT-ND" H 3600 3350 60  0001 C CNN "OrderNr"
F 5 "D" H 3600 3350 60  0001 C CNN "Distributor"
F 6 "MAX40200AUK+T" H 0   0   50  0001 C CNN "Manufacturer"
	1    3600 3350
	1    0    0    -1  
$EndComp
$Comp
L iccfpga-dev-rescue:MAX40200 U11
U 1 1 5B344FCB
P 3600 3800
F 0 "U11" H 3600 3650 60  0000 C CNN
F 1 "MAX40200" H 3600 3950 60  0000 C CNN
F 2 "Package_TO_SOT_SMD:SOT-23-5" H 3500 3800 60  0001 C CNN
F 3 "" H 3500 3800 60  0001 C CNN
F 4 "MAX40200AUK+TCT-ND" H 3600 3800 60  0001 C CNN "OrderNr"
F 5 "D" H 3600 3800 60  0001 C CNN "Distributor"
F 6 "MAX40200AUK+T" H 0   0   50  0001 C CNN "Manufacturer"
	1    3600 3800
	1    0    0    -1  
$EndComp
Text GLabel 3100 3750 0    60   Input ~ 0
POWER_USB
Text GLabel 3100 3300 0    60   Input ~ 0
POWER_PI
Wire Wire Line
	3100 3300 3200 3300
Wire Wire Line
	3100 3750 3200 3750
Wire Wire Line
	3300 3850 3200 3850
Wire Wire Line
	3200 3850 3200 3750
Connection ~ 3200 3750
Wire Wire Line
	3300 3400 3200 3400
Wire Wire Line
	3200 3400 3200 3300
Connection ~ 3200 3300
$Comp
L iccfpga-dev-rescue:GND #PWR07
U 1 1 5B3455DD
P 4000 3450
F 0 "#PWR07" H 4000 3200 50  0001 C CNN
F 1 "GND" H 4000 3300 50  0000 C CNN
F 2 "" H 4000 3450 50  0001 C CNN
F 3 "" H 4000 3450 50  0001 C CNN
	1    4000 3450
	1    0    0    -1  
$EndComp
Wire Wire Line
	4000 3450 4000 3400
Wire Wire Line
	4000 3400 3900 3400
$Comp
L iccfpga-dev-rescue:GND #PWR08
U 1 1 5B3456E9
P 4000 3900
F 0 "#PWR08" H 4000 3650 50  0001 C CNN
F 1 "GND" H 4000 3750 50  0000 C CNN
F 2 "" H 4000 3900 50  0001 C CNN
F 3 "" H 4000 3900 50  0001 C CNN
	1    4000 3900
	1    0    0    -1  
$EndComp
Wire Wire Line
	4000 3900 4000 3850
Wire Wire Line
	4000 3850 3900 3850
$Comp
L iccfpga-dev-rescue:+5V #PWR09
U 1 1 5B3458A0
P 4200 3200
F 0 "#PWR09" H 4200 3050 50  0001 C CNN
F 1 "+5V" H 4200 3340 50  0000 C CNN
F 2 "" H 4200 3200 50  0001 C CNN
F 3 "" H 4200 3200 50  0001 C CNN
	1    4200 3200
	1    0    0    -1  
$EndComp
Wire Wire Line
	3900 3300 4200 3300
Wire Wire Line
	4200 3200 4200 3300
Wire Wire Line
	4200 3750 3900 3750
Connection ~ 4200 3300
Wire Wire Line
	8650 3700 8900 3700
Wire Wire Line
	8900 3700 9100 3700
Wire Wire Line
	8250 3700 8300 3700
Wire Wire Line
	7150 4600 7150 4800
Wire Wire Line
	7100 3700 7200 3700
Wire Wire Line
	6400 3700 6400 3750
Wire Wire Line
	6650 3700 6900 3700
Wire Wire Line
	6900 3700 7100 3700
Wire Wire Line
	8650 4550 8650 4600
Wire Wire Line
	9100 3700 9150 3700
Wire Wire Line
	3200 3750 3300 3750
Wire Wire Line
	3200 3300 3300 3300
Wire Wire Line
	4200 3300 4200 3750
$Comp
L iccfpga-dev-rescue:R R11
U 1 1 5ADF4CD5
P 8650 4750
F 0 "R11" V 8650 4750 50  0000 C CNN
F 1 "22k" V 8550 4700 50  0000 C CNN
F 2 "Resistor_SMD:R_0603_1608Metric" V 8580 4750 50  0001 C CNN
F 3 "" H 8650 4750 50  0001 C CNN
F 4 "CRGCQ0603F22K" H 0   0   50  0001 C CNN "Manufacturer"
F 5 "A129704CT-ND" H 0   0   50  0001 C CNN "OrderNr"
F 6 "D" H 0   0   50  0001 C CNN "Distributor"
	1    8650 4750
	-1   0    0    -1  
$EndComp
$Comp
L iccfpga-dev-rescue:R R10
U 1 1 5ADF4CCF
P 8650 3950
F 0 "R10" V 8650 3950 50  0000 C CNN
F 1 "68k" V 8550 3950 50  0000 C CNN
F 2 "Resistor_SMD:R_0603_1608Metric" V 8580 3950 50  0001 C CNN
F 3 "" H 8650 3950 50  0001 C CNN
F 4 "RMCF0603FT68K0" H 0   0   50  0001 C CNN "Manufacturer"
F 5 "RMCF0603FT68K0CT-ND" H 0   0   50  0001 C CNN "OrderNr"
F 6 "D" H 0   0   50  0001 C CNN "Distributor"
	1    8650 3950
	-1   0    0    -1  
$EndComp
Wire Wire Line
	8650 3700 8650 3800
Wire Wire Line
	8650 4100 8650 4200
Wire Wire Line
	8650 4500 8650 4550
Connection ~ 8650 4550
$Comp
L iccfpga-dev-rescue:R R1
U 1 1 5D8AB16F
P 8650 4350
F 0 "R1" V 8650 4350 50  0000 C CNN
F 1 "5k6" V 8550 4350 50  0000 C CNN
F 2 "Resistor_SMD:R_0603_1608Metric" V 8580 4350 50  0001 C CNN
F 3 "" H 8650 4350 50  0001 C CNN
F 4 "CRGCQ0603F5K6" H 0   0   50  0001 C CNN "Manufacturer"
F 5 "A129697CT-ND" H 0   0   50  0001 C CNN "OrderNr"
F 6 "D" H 0   0   50  0001 C CNN "Distributor"
	1    8650 4350
	-1   0    0    -1  
$EndComp
$Comp
L iccfpga-dev-rescue:+3V3 #PWR0136
U 1 1 5DD7361D
P 9500 3600
F 0 "#PWR0136" H 9500 3450 50  0001 C CNN
F 1 "+3V3" H 9515 3773 50  0000 C CNN
F 2 "" H 9500 3600 50  0001 C CNN
F 3 "" H 9500 3600 50  0001 C CNN
	1    9500 3600
	1    0    0    -1  
$EndComp
$Comp
L iccfpga-dev-rescue:+3V3 #PWR0152
U 1 1 5E25B0A9
P 1500 5550
F 0 "#PWR0152" H 1500 5400 50  0001 C CNN
F 1 "+3V3" H 1515 5723 50  0000 C CNN
F 2 "" H 1500 5550 50  0001 C CNN
F 3 "" H 1500 5550 50  0001 C CNN
	1    1500 5550
	1    0    0    -1  
$EndComp
$Comp
L iccfpga-dev-rescue:+3V3 #PWR0162
U 1 1 5E25B58E
P 2000 5550
F 0 "#PWR0162" H 2000 5400 50  0001 C CNN
F 1 "+3V3" H 2015 5723 50  0000 C CNN
F 2 "" H 2000 5550 50  0001 C CNN
F 3 "" H 2000 5550 50  0001 C CNN
	1    2000 5550
	1    0    0    -1  
$EndComp
$EndSCHEMATC
